type(M_ID_117,TYPE_C).
type(M_ID_262,TYPE_C).
type(M_ID_204,TYPE_B).
type(M_ID_378,TYPE_C).
type(M_ID_413,TYPE_C).
type(M_ID_60,TYPE_C).
type(M_ID_471,TYPE_C).
type(M_ID_275,TYPE_C).
type(M_ID_453,TYPE_B).
type(M_ID_148,TYPE_B).
type(M_ID_96,TYPE_C).
type(M_ID_241,TYPE_C).
type(M_ID_199,TYPE_B).
type(M_ID_466,TYPE_C).
type(M_ID_150,TYPE_C).
type(M_ID_52,TYPE_B).
type(M_ID_375,TYPE_B).
type(M_ID_460,TYPE_B).
type(M_ID_144,TYPE_C).
type(M_ID_212,TYPE_B).
type(M_ID_177,TYPE_B).
type(M_ID_372,TYPE_C).
type(M_ID_412,TYPE_C).
type(M_ID_202,TYPE_B).
type(M_ID_205,TYPE_B).
type(M_ID_366,TYPE_C).
type(M_ID_7,TYPE_B).
type(M_ID_270,TYPE_B).
type(M_ID_320,TYPE_B).
type(M_ID_238,TYPE_C).
type(M_ID_385,TYPE_C).
type(M_ID_216,TYPE_C).
type(M_ID_374,TYPE_C).
type(M_ID_112,TYPE_C).
type(M_ID_432,TYPE_B).
type(M_ID_449,TYPE_C).
type(M_ID_422,TYPE_B).
type(M_ID_297,TYPE_B).
type(M_ID_273,TYPE_C).
type(M_ID_353,TYPE_C).
type(M_ID_131,TYPE_C).
type(M_ID_91,TYPE_C).
type(M_ID_264,TYPE_B).
type(M_ID_218,TYPE_B).
type(M_ID_191,TYPE_B).
type(M_ID_32,TYPE_C).
type(M_ID_456,TYPE_B).
type(M_ID_71,TYPE_B).
type(M_ID_93,TYPE_C).
type(M_ID_47,TYPE_B).
type(M_ID_41,TYPE_C).
type(M_ID_88,TYPE_C).
type(M_ID_401,TYPE_C).
type(M_ID_149,TYPE_C).
type(M_ID_379,TYPE_C).
type(M_ID_87,TYPE_C).
type(M_ID_217,TYPE_C).
type(M_ID_19,TYPE_B).
type(M_ID_369,TYPE_C).
type(M_ID_342,TYPE_B).
type(M_ID_368,TYPE_C).
type(M_ID_10,TYPE_C).
type(M_ID_64,TYPE_B).
type(M_ID_224,TYPE_B).
type(M_ID_377,TYPE_C).
type(M_ID_420,TYPE_B).
type(M_ID_157,TYPE_B).
type(M_ID_310,TYPE_C).
type(M_ID_350,TYPE_C).
type(M_ID_219,TYPE_B).
type(M_ID_458,TYPE_B).
type(M_ID_371,TYPE_C).
type(M_ID_127,TYPE_C).
type(M_ID_207,TYPE_B).
type(M_ID_395,TYPE_C).
type(M_ID_394,TYPE_C).
type(M_ID_180,TYPE_B).
type(M_ID_152,TYPE_C).
type(M_ID_482,TYPE_C).
type(M_ID_484,TYPE_C).
type(M_ID_101,TYPE_C).
type(M_ID_483,TYPE_C).
type(M_ID_338,TYPE_C).
type(M_ID_6,TYPE_C).
type(M_ID_324,TYPE_C).
type(M_ID_53,TYPE_C).
type(M_ID_119,TYPE_C).
type(M_ID_76,TYPE_B).
type(M_ID_68,TYPE_B).
type(M_ID_206,TYPE_B).
type(M_ID_138,TYPE_C).
type(M_ID_335,TYPE_C).
type(M_ID_200,TYPE_B).
type(M_ID_176,TYPE_C).
type(M_ID_242,TYPE_C).
type(M_ID_261,TYPE_B).
type(M_ID_79,TYPE_B).
type(M_ID_113,TYPE_C).
type(M_ID_396,TYPE_C).
type(M_ID_250,TYPE_C).
type(M_ID_50,TYPE_C).
type(M_ID_314,TYPE_B).
type(M_ID_341,TYPE_B).
type(M_ID_94,TYPE_C).
type(M_ID_105,TYPE_C).
type(M_ID_373,TYPE_C).
type(M_ID_65,TYPE_C).
type(M_ID_245,TYPE_B).
type(M_ID_189,TYPE_B).
type(M_ID_492,TYPE_C).
type(M_ID_447,TYPE_B).
type(M_ID_330,TYPE_B).
type(M_ID_107,TYPE_B).
type(M_ID_362,TYPE_C).
type(M_ID_160,TYPE_B).
type(M_ID_263,TYPE_C).
type(M_ID_485,TYPE_C).
type(M_ID_141,TYPE_C).
type(M_ID_201,TYPE_B).
type(M_ID_192,TYPE_C).
type(M_ID_104,TYPE_C).
type(M_ID_333,TYPE_C).
type(M_ID_122,TYPE_C).
type(M_ID_399,TYPE_C).
type(M_ID_151,TYPE_C).
type(M_ID_179,TYPE_B).
type(M_ID_92,TYPE_C).
type(M_ID_266,TYPE_B).
type(M_ID_132,TYPE_C).
type(M_ID_39,TYPE_B).
type(M_ID_470,TYPE_C).
type(M_ID_247,TYPE_B).
type(M_ID_370,TYPE_C).
type(M_ID_223,TYPE_C).
type(M_ID_405,TYPE_C).
type(M_ID_255,TYPE_B).
type(M_ID_495,TYPE_C).
type(M_ID_155,TYPE_B).
type(M_ID_111,TYPE_C).
type(M_ID_454,TYPE_C).
type(M_ID_209,TYPE_B).
type(M_ID_30,TYPE_C).
type(M_ID_178,TYPE_B).
type(M_ID_81,TYPE_C).
type(M_ID_43,TYPE_B).
type(M_ID_156,TYPE_B).
type(M_ID_436,TYPE_B).
type(M_ID_73,TYPE_C).
type(M_ID_493,TYPE_C).
type(M_ID_500,TYPE_C).
type(M_ID_188,TYPE_B).
type(M_ID_279,TYPE_B).
type(M_ID_257,TYPE_C).
type(M_ID_367,TYPE_B).
type(M_ID_298,TYPE_C).
type(M_ID_145,TYPE_C).
type(M_ID_89,TYPE_C).
type(M_ID_474,TYPE_C).
type(M_ID_421,TYPE_B).
type(M_ID_174,TYPE_B).
type(M_ID_164,TYPE_B).
type(M_ID_288,TYPE_C).
type(M_ID_463,TYPE_C).
type(M_ID_24,TYPE_B).
type(M_ID_147,TYPE_C).
type(M_ID_315,TYPE_B).
type(M_ID_411,TYPE_B).
type(M_ID_293,TYPE_B).
type(M_ID_277,TYPE_C).
type(M_ID_85,TYPE_C).
type(M_ID_23,TYPE_C).
type(M_ID_140,TYPE_C).
type(M_ID_388,TYPE_C).
type(M_ID_473,TYPE_B).
type(M_ID_102,TYPE_C).
type(M_ID_472,TYPE_B).
type(M_ID_312,TYPE_C).
type(M_ID_402,TYPE_C).
type(M_ID_381,TYPE_C).
type(M_ID_258,TYPE_C).
type(M_ID_487,TYPE_C).
type(M_ID_345,TYPE_C).
type(M_ID_427,TYPE_B).
type(M_ID_175,TYPE_B).
type(M_ID_348,TYPE_C).
type(M_ID_28,TYPE_C).
type(M_ID_48,TYPE_C).
type(M_ID_12,TYPE_B).
type(M_ID_448,TYPE_B).
type(M_ID_9,TYPE_C).
type(M_ID_408,TYPE_C).
type(M_ID_462,TYPE_C).
type(M_ID_146,TYPE_C).
type(M_ID_423,TYPE_B).
type(M_ID_166,TYPE_B).
type(M_ID_233,TYPE_B).
type(M_ID_40,TYPE_B).
type(M_ID_193,TYPE_B).
type(M_ID_488,TYPE_C).
type(M_ID_210,TYPE_C).
type(M_ID_15,TYPE_B).
type(M_ID_220,TYPE_B).
type(M_ID_168,TYPE_B).
type(M_ID_299,TYPE_C).
type(M_ID_14,TYPE_C).
type(M_ID_339,TYPE_C).
type(M_ID_346,TYPE_C).
type(M_ID_69,TYPE_C).
type(M_ID_490,TYPE_C).
type(M_ID_134,TYPE_C).
type(M_ID_169,TYPE_B).
type(M_ID_11,TYPE_B).
type(M_ID_356,TYPE_C).
type(M_ID_256,TYPE_C).
type(M_ID_359,TYPE_C).
type(M_ID_459,TYPE_B).
type(M_ID_59,TYPE_C).
type(M_ID_438,TYPE_B).
type(M_ID_347,TYPE_C).
type(M_ID_287,TYPE_C).
type(M_ID_479,TYPE_C).
type(M_ID_80,TYPE_C).
type(M_ID_332,TYPE_C).
type(M_ID_296,TYPE_C).
type(M_ID_98,TYPE_C).
type(M_ID_376,TYPE_C).
type(M_ID_2,TYPE_C).
type(M_ID_1,TYPE_B).
type(M_ID_446,TYPE_B).
type(M_ID_278,TYPE_B).
type(M_ID_3,TYPE_B).
type(M_ID_409,TYPE_C).
type(M_ID_18,TYPE_B).
type(M_ID_243,TYPE_C).
type(M_ID_344,TYPE_C).
type(M_ID_100,TYPE_C).
type(M_ID_187,TYPE_C).
type(M_ID_322,TYPE_C).
type(M_ID_358,TYPE_C).
type(M_ID_290,TYPE_C).
type(M_ID_135,TYPE_C).
type(M_ID_357,TYPE_C).
type(M_ID_237,TYPE_B).
type(M_ID_22,TYPE_B).
type(M_ID_251,TYPE_B).
type(M_ID_197,TYPE_B).
type(M_ID_161,TYPE_B).
type(M_ID_284,TYPE_C).
type(M_ID_380,TYPE_C).
type(M_ID_435,TYPE_B).
type(M_ID_170,TYPE_B).
type(M_ID_58,TYPE_B).
type(M_ID_75,TYPE_B).
type(M_ID_226,TYPE_C).
type(M_ID_190,TYPE_B).
type(M_ID_236,TYPE_B).
type(M_ID_269,TYPE_B).
type(M_ID_305,TYPE_C).
type(M_ID_306,TYPE_C).
type(M_ID_354,TYPE_C).
type(M_ID_229,TYPE_C).
type(M_ID_244,TYPE_B).
type(M_ID_308,TYPE_B).
type(M_ID_455,TYPE_B).
type(M_ID_468,TYPE_C).
type(M_ID_309,TYPE_B).
type(M_ID_418,TYPE_B).
type(M_ID_349,TYPE_C).
type(M_ID_480,TYPE_C).
type(M_ID_83,TYPE_B).
type(M_ID_54,TYPE_C).
type(M_ID_328,TYPE_C).
type(M_ID_31,TYPE_B).
type(M_ID_86,TYPE_B).
type(M_ID_253,TYPE_C).
type(M_ID_272,TYPE_C).
type(M_ID_481,TYPE_C).
type(M_ID_194,TYPE_B).
type(M_ID_8,TYPE_B).
type(M_ID_302,TYPE_C).
type(M_ID_352,TYPE_C).
type(M_ID_442,TYPE_B).
type(M_ID_21,TYPE_B).
type(M_ID_469,TYPE_C).
type(M_ID_443,TYPE_B).
type(M_ID_425,TYPE_B).
type(M_ID_383,TYPE_B).
type(M_ID_406,TYPE_C).
type(M_ID_136,TYPE_C).
type(M_ID_34,TYPE_C).
type(M_ID_45,TYPE_B).
type(M_ID_477,TYPE_B).
type(M_ID_431,TYPE_B).
type(M_ID_246,TYPE_B).
type(M_ID_260,TYPE_C).
type(M_ID_451,TYPE_B).
type(M_ID_29,TYPE_B).
type(M_ID_109,TYPE_C).
type(M_ID_123,TYPE_B).
type(M_ID_445,TYPE_B).
type(M_ID_57,TYPE_B).
type(M_ID_351,TYPE_C).
type(M_ID_361,TYPE_C).
type(M_ID_171,TYPE_B).
type(M_ID_51,TYPE_B).
type(M_ID_327,TYPE_C).
type(M_ID_386,TYPE_C).
type(M_ID_26,TYPE_B).
type(M_ID_274,TYPE_C).
type(M_ID_311,TYPE_C).
type(M_ID_434,TYPE_B).
type(M_ID_108,TYPE_C).
type(M_ID_416,TYPE_B).
type(M_ID_276,TYPE_C).
type(M_ID_35,TYPE_B).
type(M_ID_407,TYPE_C).
type(M_ID_214,TYPE_B).
type(M_ID_254,TYPE_B).
type(M_ID_215,TYPE_C).
type(M_ID_291,TYPE_C).
type(M_ID_398,TYPE_C).
type(M_ID_382,TYPE_C).
type(M_ID_252,TYPE_B).
type(M_ID_163,TYPE_B).
type(M_ID_313,TYPE_C).
type(M_ID_16,TYPE_B).
type(M_ID_316,TYPE_C).
type(M_ID_391,TYPE_C).
type(M_ID_318,TYPE_C).
type(M_ID_186,TYPE_C).
type(M_ID_467,TYPE_C).
type(M_ID_464,TYPE_C).
type(M_ID_441,TYPE_B).
type(M_ID_364,TYPE_C).
type(M_ID_499,TYPE_C).
type(M_ID_392,TYPE_C).
type(M_ID_321,TYPE_C).
type(M_ID_331,TYPE_B).
type(M_ID_183,TYPE_B).
type(M_ID_62,TYPE_C).
type(M_ID_267,TYPE_C).
type(M_ID_387,TYPE_C).
type(M_ID_162,TYPE_C).
type(M_ID_307,TYPE_C).
type(M_ID_99,TYPE_B).
type(M_ID_283,TYPE_C).
type(M_ID_292,TYPE_C).
type(M_ID_63,TYPE_B).
type(M_ID_5,TYPE_C).
type(M_ID_159,TYPE_B).
type(M_ID_304,TYPE_C).
type(M_ID_165,TYPE_B).
type(M_ID_49,TYPE_C).
type(M_ID_360,TYPE_C).
type(M_ID_475,TYPE_C).
type(M_ID_44,TYPE_B).
type(M_ID_497,TYPE_C).
type(M_ID_337,TYPE_C).
type(M_ID_20,TYPE_C).
type(M_ID_410,TYPE_B).
type(M_ID_265,TYPE_C).
type(M_ID_317,TYPE_C).
type(M_ID_195,TYPE_B).
type(M_ID_280,TYPE_B).
type(M_ID_336,TYPE_C).
type(M_ID_444,TYPE_B).
type(M_ID_437,TYPE_B).
type(M_ID_300,TYPE_C).
type(M_ID_496,TYPE_C).
type(M_ID_67,TYPE_B).
type(M_ID_27,TYPE_C).
type(M_ID_184,TYPE_B).
type(M_ID_90,TYPE_C).
type(M_ID_211,TYPE_B).
type(M_ID_221,TYPE_B).
type(M_ID_78,TYPE_C).
type(M_ID_286,TYPE_C).
type(M_ID_120,TYPE_C).
type(M_ID_36,TYPE_C).
type(M_ID_61,TYPE_C).
type(M_ID_227,TYPE_B).
type(M_ID_325,TYPE_C).
type(M_ID_365,TYPE_C).
type(M_ID_439,TYPE_B).
type(M_ID_239,TYPE_B).
type(M_ID_126,TYPE_C).
type(M_ID_137,TYPE_C).
type(M_ID_118,TYPE_C).
type(M_ID_46,TYPE_B).
type(M_ID_143,TYPE_B).
type(M_ID_417,TYPE_B).
type(M_ID_400,TYPE_C).
type(M_ID_281,TYPE_B).
type(M_ID_426,TYPE_B).
type(M_ID_285,TYPE_C).
type(M_ID_282,TYPE_B).
type(M_ID_230,TYPE_C).
type(M_ID_249,TYPE_B).
type(M_ID_428,TYPE_B).
type(M_ID_397,TYPE_C).
