g70R(M1).
g215FY(M2).
g67N(M293).
g70R(M293).
g70R(M294).
g41L(M295).
g215FY(M295).
g70R(M296).
g67N(M298).
g70R(M298).
g219EQ(M298).
g41L(M299).
g70R(M299).
g215FY(M299).
g41L(M300).
g67N(M300).
g70R(M300).
g215FY(M300).
g219EQ(M300).
g67N(M301).
g70R(M301).
g215FY(M301).
g70R(M303).
g70R(M305).
g67N(M306).
g70R(M306).
g219EQ(M306).
g41L(M308).
g215FY(M308).
g70R(M309).
g41L(M310).
g210W(M310).
g215FY(M310).
g67N(M311).
g70R(M311).
g70R(M312).
g70R(M313).
g210W(M313).
g215FY(M313).
g219EQ(M313).
g67N(M314).
g70R(M314).
g215FY(M314).
g67N(M315).
g70R(M315).
g215FY(M315).
g219EQ(M315).
g41L(M316).
g215FY(M316).
g70R(M317).
g41L(M318).
g215FY(M318).
g215FY(M322).
g70R(M323).
g70R(M325).
g41L(M326).
g210W(M326).
g215FY(M326).
g41L(M327).
g67N(M327).
g70R(M327).
g215FY(M327).
g219EQ(M327).
g70R(M328).
g41L(M331).
g41L(M333).
g215FY(M333).
g70R(M334).
g41L(M335).
g67N(M335).
g70R(M335).
g215FY(M335).
g219EQ(M335).
g41L(M336).
g210W(M336).
g215FY(M336).
g41L(M339).
g215FY(M339).
g41L(M340).
g215FY(M340).
g41L(M341).
g215FY(M341).
g215FY(M342).
g70R(M343).
g41L(M344).
g215FY(M344).
g67N(M347).
g70R(M347).
g219EQ(M347).
g41L(M348).
g210W(M348).
g41L(M349).
g70R(M349).
g215FY(M349).
g41L(M352).
g210W(M352).
g215FY(M352).
g41L(M354).
g215FY(M354).
g215FY(M357).
g70R(M358).
g215FY(M358).
g219EQ(M358).
g41L(M360).
g215FY(M360).
g41L(M361).
g215FY(M361).
g67N(M362).
g70R(M362).
g70R(M363).
g70R(M364).
g70R(M3).
g41L(M5).
g67N(M5).
g70R(M5).
g215FY(M5).
g219EQ(M5).
g67N(M6).
g67N(M7).
g70R(M7).
g219EQ(M7).
g70R(M8).
g67N(M9).
g70R(M9).
g215FY(M9).
g219EQ(M9).
g70R(M10).
g215FY(M10).
g219EQ(M10).
g70R(M12).
g70R(M13).
g41L(M14).
g210W(M14).
g215FY(M14).
g41L(M16).
g67N(M16).
g70R(M16).
g215FY(M16).
g219EQ(M16).
g67N(M17).
g70R(M17).
g219EQ(M17).
g70R(M18).
g67N(M21).
g70R(M21).
g215FY(M21).
g219EQ(M21).
g41L(M23).
g70R(M23).
g215FY(M23).
g67N(M24).
g70R(M24).
g215FY(M24).
g219EQ(M24).
g70R(M26).
g41L(M28).
g210W(M28).
g215FY(M28).
g70R(M30).
g215FY(M30).
g219EQ(M30).
g70R(M31).
g70R(M32).
g70R(M33).
g67N(M35).
g70R(M35).
g215FY(M35).
g219EQ(M35).
g41L(M36).
g67N(M36).
g67N(M38).
g70R(M38).
g219EQ(M38).
g70R(M41).
g219EQ(M41).
g41L(M42).
g210W(M42).
g215FY(M42).
g41L(M43).
g215FY(M43).
g70R(M47).
g70R(M48).
g41L(M49).
g67N(M49).
g70R(M49).
g215FY(M49).
g219EQ(M49).
g70R(M50).
g41L(M51).
g215FY(M51).
g41L(M52).
g67N(M52).
g70R(M52).
g219EQ(M52).
g67N(M54).
g70R(M54).
g219EQ(M54).
g41L(M57).
g70R(M57).
g215FY(M57).
g219EQ(M57).
g67N(M59).
g215FY(M59).
g219EQ(M59).
g41L(M60).
g67N(M60).
g70R(M60).
g210W(M60).
g215FY(M60).
g67N(M62).
g70R(M62).
g219EQ(M62).
g41L(M63).
g210W(M63).
g215FY(M63).
g41L(M64).
g210W(M64).
g215FY(M64).
g70R(M65).
g215FY(M65).
g70R(M66).
g67N(M67).
g70R(M67).
g215FY(M67).
g219EQ(M67).
g41L(M68).
g70R(M68).
g215FY(M68).
g41L(M70).
g67N(M70).
g70R(M70).
g215FY(M70).
g41L(M71).
g67N(M71).
g210W(M71).
g215FY(M71).
g215FY(M72).
g41L(M73).
g215FY(M73).
g67N(M74).
g70R(M74).
g219EQ(M74).
g41L(M78).
g67N(M78).
g70R(M78).
g215FY(M78).
g67N(M79).
g70R(M79).
g219EQ(M79).
g41L(M80).
g67N(M80).
g70R(M80).
g215FY(M80).
g41L(M81).
g210W(M81).
g215FY(M81).
g67N(M83).
g70R(M83).
g219EQ(M83).
g41L(M85).
g67N(M85).
g70R(M85).
g215FY(M85).
g219EQ(M85).
g70R(M87).
g41L(M89).
g210W(M89).
g215FY(M89).
g67N(M90).
g70R(M90).
g41L(M91).
g67N(M91).
g210W(M91).
g215FY(M91).
g70R(M93).
g70R(M97).
g70R(M100).
g70R(M101).
g41L(M102).
g210W(M102).
g215FY(M102).
g41L(M104).
g67N(M104).
g70R(M104).
g210W(M104).
g215FY(M104).
g41L(M105).
g215FY(M105).
g41L(M106).
g67N(M106).
g210W(M106).
g215FY(M106).
g219EQ(M106).
g67N(M107).
g70R(M107).
g215FY(M107).
g219EQ(M107).
g41L(M108).
g210W(M108).
g215FY(M108).
g70R(M110).
g70R(M111).
g41L(M112).
g67N(M112).
g70R(M112).
g215FY(M112).
g219EQ(M112).
g41L(M113).
g67N(M113).
g215FY(M113).
g67N(M117).
g70R(M117).
g215FY(M117).
g219EQ(M117).
g70R(M118).
g41L(M120).
g210W(M120).
g215FY(M120).
g70R(M121).
g215FY(M121).
g41L(M122).
g210W(M122).
g215FY(M122).
g70R(M123).
g215FY(M123).
g219EQ(M123).
g67N(M124).
g70R(M124).
g219EQ(M124).
g41L(M125).
g67N(M125).
g210W(M125).
g215FY(M125).
g70R(M126).
g215FY(M126).
g219EQ(M126).
g215FY(M127).
g41L(M129).
g210W(M129).
g215FY(M129).
g41L(M130).
g67N(M130).
g210W(M130).
g215FY(M130).
g41L(M131).
g67N(M131).
g215FY(M131).
g215FY(M133).
g70R(M136).
g70R(M137).
g219EQ(M137).
g70R(M139).
g215FY(M139).
g41L(M140).
g215FY(M140).
g41L(M141).
g215FY(M141).
g210W(M142).
g215FY(M142).
g41L(M144).
g210W(M144).
g215FY(M144).
g67N(M145).
g70R(M145).
g219EQ(M145).
g67N(M147).
g215FY(M147).
g41L(M148).
g70R(M148).
g215FY(M148).
g70R(M154).
g70R(M155).
g215FY(M156).
g41L(M157).
g70R(M157).
g215FY(M157).
g70R(M161).
g210W(M162).
g215FY(M162).
g70R(M163).
g215FY(M164).
g70R(M165).
g215FY(M165).
g219EQ(M165).
g67N(M166).
g210W(M166).
g215FY(M166).
g41L(M167).
g215FY(M167).
g70R(M168).
g215FY(M168).
g215FY(M169).
g219EQ(M169).
g70R(M170).
g215FY(M170).
g67N(M172).
g70R(M172).
g219EQ(M172).
g70R(M173).
g215FY(M173).
g67N(M174).
g70R(M174).
g215FY(M174).
g219EQ(M174).
g41L(M175).
g41L(M177).
g210W(M177).
g215FY(M177).
g41L(M179).
g215FY(M179).
g70R(M183).
g219EQ(M183).
g41L(M185).
g215FY(M185).
g41L(M186).
g67N(M186).
g70R(M186).
g41L(M189).
g210W(M189).
g215FY(M189).
g70R(M190).
g67N(M191).
g70R(M191).
g219EQ(M191).
g70R(M192).
g215FY(M192).
g219EQ(M192).
g41L(M193).
g67N(M193).
g70R(M193).
g215FY(M193).
g219EQ(M193).
g70R(M194).
g219EQ(M194).
g70R(M195).
g70R(M196).
g219EQ(M196).
g215FY(M197).
g70R(M198).
g67N(M199).
g70R(M199).
g219EQ(M199).
g70R(M200).
g70R(M203).
g210W(M203).
g215FY(M203).
g219EQ(M203).
g41L(M204).
g210W(M204).
g215FY(M204).
g215FY(M205).
g41L(M206).
g215FY(M206).
g41L(M207).
g210W(M207).
g215FY(M207).
g215FY(M208).
g70R(M209).
g67N(M211).
g70R(M211).
g219EQ(M211).
g67N(M212).
g70R(M212).
g219EQ(M212).
g210W(M213).
g215FY(M213).
g215FY(M216).
g67N(M217).
g70R(M217).
g219EQ(M217).
g215FY(M218).
g67N(M219).
g70R(M219).
g219EQ(M219).

g67N(M293).
g70R(M293).
g70R(M294).
g41L(M295).
g215FY(M295).
g70R(M296).
g67N(M298).
g70R(M298).
g219EQ(M298).
g41L(M299).
g70R(M299).
g215FY(M299).
g41L(M300).
g67N(M300).
g70R(M300).
g215FY(M300).
g219EQ(M300).
g67N(M301).
g70R(M301).
g215FY(M301).
g70R(M303).
g70R(M305).
g67N(M306).
g70R(M306).
g219EQ(M306).
g41L(M308).
g215FY(M308).
g70R(M309).
g41L(M310).
g210W(M310).
g215FY(M310).
g67N(M311).
g70R(M311).
g70R(M312).
g70R(M313).
g210W(M313).
g215FY(M313).
g219EQ(M313).
g67N(M314).
g70R(M314).
g215FY(M314).
g67N(M315).
g70R(M315).
g215FY(M315).
g219EQ(M315).
g41L(M316).
g215FY(M316).
g70R(M317).
g41L(M318).
g215FY(M318).
g215FY(M322).
g70R(M323).
g70R(M325).
g41L(M326).
g210W(M326).
g215FY(M326).
g41L(M327).
g67N(M327).
g70R(M327).
g215FY(M327).
g219EQ(M327).
g70R(M328).
g41L(M331).
g41L(M333).
g215FY(M333).
g70R(M334).
g41L(M335).
g67N(M335).
g70R(M335).
g215FY(M335).
g219EQ(M335).
g41L(M336).
g210W(M336).
g215FY(M336).
g41L(M339).
g215FY(M339).
g41L(M340).
g215FY(M340).
g41L(M341).
g215FY(M341).
g215FY(M342).
g70R(M343).
g41L(M344).
g215FY(M344).
g67N(M347).
g70R(M347).
g219EQ(M347).
g41L(M348).
g210W(M348).
g41L(M349).
g70R(M349).
g215FY(M349).
g41L(M352).
g210W(M352).
g215FY(M352).
g41L(M354).
g215FY(M354).
g215FY(M357).
g70R(M358).
g215FY(M358).
g219EQ(M358).
g41L(M360).
g215FY(M360).
g41L(M361).
g215FY(M361).
g67N(M362).
g70R(M362).
g70R(M363).
g70R(M364).
