type(M_ID_465,TYPE_B).
type(M_ID_301,TYPE_B).
type(M_ID_240,TYPE_C).
type(M_ID_384,TYPE_B).
type(M_ID_452,TYPE_C).
type(M_ID_56,TYPE_B).
type(M_ID_419,TYPE_C).
type(M_ID_355,TYPE_B).
type(M_ID_66,TYPE_C).
type(M_ID_334,TYPE_B).
type(M_ID_498,TYPE_B).
type(M_ID_25,TYPE_C).
type(M_ID_17,TYPE_C).
type(M_ID_77,TYPE_B).
type(M_ID_13,TYPE_B).
type(M_ID_116,TYPE_B).
type(M_ID_393,TYPE_C).
type(M_ID_133,TYPE_B).
type(M_ID_234,TYPE_C).
type(M_ID_125,TYPE_B).
type(M_ID_491,TYPE_B).
type(M_ID_271,TYPE_B).
type(M_ID_429,TYPE_C).
type(M_ID_115,TYPE_B).
type(M_ID_404,TYPE_B).
type(M_ID_38,TYPE_B).
type(M_ID_167,TYPE_C).
type(M_ID_433,TYPE_C).
type(M_ID_225,TYPE_B).
type(M_ID_461,TYPE_B).
type(M_ID_153,TYPE_B).
type(M_ID_208,TYPE_C).
type(M_ID_158,TYPE_C).
type(M_ID_110,TYPE_B).
type(M_ID_130,TYPE_B).
type(M_ID_329,TYPE_B).
type(M_ID_340,TYPE_B).
type(M_ID_55,TYPE_C).
type(M_ID_121,TYPE_B).
type(M_ID_84,TYPE_B).
type(M_ID_4,TYPE_B).
type(M_ID_42,TYPE_C).
type(M_ID_494,TYPE_B).
type(M_ID_128,TYPE_B).
type(M_ID_414,TYPE_C).
type(M_ID_106,TYPE_C).
type(M_ID_289,TYPE_B).
type(M_ID_74,TYPE_B).
type(M_ID_33,TYPE_C).
type(M_ID_172,TYPE_B).
type(M_ID_154,TYPE_B).
type(M_ID_390,TYPE_B).
type(M_ID_489,TYPE_B).
type(M_ID_185,TYPE_B).
type(M_ID_363,TYPE_B).
type(M_ID_389,TYPE_B).
type(M_ID_295,TYPE_B).
type(M_ID_139,TYPE_B).
type(M_ID_181,TYPE_B).
type(M_ID_424,TYPE_C).
type(M_ID_268,TYPE_B).
type(M_ID_478,TYPE_B).
type(M_ID_97,TYPE_B).
type(M_ID_235,TYPE_C).
type(M_ID_37,TYPE_B).
type(M_ID_248,TYPE_C).
type(M_ID_103,TYPE_B).
type(M_ID_440,TYPE_C).
type(M_ID_232,TYPE_C).
type(M_ID_457,TYPE_C).
type(M_ID_182,TYPE_C).
type(M_ID_142,TYPE_C).
type(M_ID_213,TYPE_C).
type(M_ID_124,TYPE_B).
type(M_ID_319,TYPE_B).
type(M_ID_228,TYPE_C).
type(M_ID_198,TYPE_C).
type(M_ID_294,TYPE_C).
type(M_ID_196,TYPE_C).
type(M_ID_72,TYPE_B).
type(M_ID_403,TYPE_B).
type(M_ID_303,TYPE_B).
type(M_ID_203,TYPE_C).
type(M_ID_326,TYPE_B).
type(M_ID_129,TYPE_B).
type(M_ID_486,TYPE_B).
type(M_ID_415,TYPE_C).
type(M_ID_173,TYPE_B).
type(M_ID_259,TYPE_C).
type(M_ID_114,TYPE_B).
type(M_ID_70,TYPE_C).
type(M_ID_95,TYPE_B).
type(M_ID_222,TYPE_C).
type(M_ID_476,TYPE_B).
type(M_ID_82,TYPE_C).
type(M_ID_430,TYPE_C).
type(M_ID_323,TYPE_B).
type(M_ID_450,TYPE_C).
type(M_ID_231,TYPE_B).
type(M_ID_343,TYPE_B).
type(M_ID_50,TYPE_B).
type(M_ID_314,TYPE_C).
type(M_ID_341,TYPE_C).
type(M_ID_94,TYPE_B).
type(M_ID_105,TYPE_B).
type(M_ID_373,TYPE_B).
type(M_ID_65,TYPE_B).
type(M_ID_245,TYPE_C).
type(M_ID_189,TYPE_C).
type(M_ID_492,TYPE_B).
type(M_ID_447,TYPE_C).
type(M_ID_330,TYPE_C).
type(M_ID_107,TYPE_C).
type(M_ID_362,TYPE_B).
type(M_ID_160,TYPE_C).
type(M_ID_263,TYPE_B).
type(M_ID_485,TYPE_B).
type(M_ID_141,TYPE_B).
type(M_ID_201,TYPE_C).
type(M_ID_192,TYPE_B).
type(M_ID_104,TYPE_B).
type(M_ID_333,TYPE_B).
type(M_ID_122,TYPE_B).
type(M_ID_399,TYPE_B).
type(M_ID_151,TYPE_B).
type(M_ID_179,TYPE_C).
type(M_ID_92,TYPE_B).
type(M_ID_266,TYPE_C).
type(M_ID_132,TYPE_B).
type(M_ID_39,TYPE_C).
type(M_ID_470,TYPE_B).
type(M_ID_247,TYPE_C).
type(M_ID_370,TYPE_B).
type(M_ID_223,TYPE_B).
type(M_ID_405,TYPE_B).
type(M_ID_255,TYPE_C).
type(M_ID_495,TYPE_B).
type(M_ID_155,TYPE_C).
type(M_ID_111,TYPE_B).
type(M_ID_454,TYPE_B).
type(M_ID_209,TYPE_C).
type(M_ID_30,TYPE_B).
type(M_ID_178,TYPE_C).
type(M_ID_81,TYPE_B).
type(M_ID_43,TYPE_C).
type(M_ID_156,TYPE_C).
type(M_ID_436,TYPE_C).
type(M_ID_73,TYPE_B).
type(M_ID_493,TYPE_B).
type(M_ID_500,TYPE_B).
type(M_ID_188,TYPE_C).
type(M_ID_279,TYPE_C).
type(M_ID_257,TYPE_B).
type(M_ID_367,TYPE_C).
type(M_ID_298,TYPE_B).
type(M_ID_145,TYPE_B).
type(M_ID_89,TYPE_B).
type(M_ID_474,TYPE_B).
type(M_ID_421,TYPE_C).
type(M_ID_174,TYPE_C).
type(M_ID_164,TYPE_C).
type(M_ID_288,TYPE_B).
type(M_ID_463,TYPE_B).
type(M_ID_24,TYPE_C).
type(M_ID_147,TYPE_B).
type(M_ID_315,TYPE_C).
type(M_ID_411,TYPE_C).
type(M_ID_293,TYPE_C).
type(M_ID_277,TYPE_B).
type(M_ID_85,TYPE_B).
type(M_ID_23,TYPE_B).
type(M_ID_140,TYPE_B).
type(M_ID_388,TYPE_B).
type(M_ID_473,TYPE_C).
type(M_ID_102,TYPE_B).
type(M_ID_472,TYPE_C).
type(M_ID_312,TYPE_B).
type(M_ID_402,TYPE_B).
type(M_ID_381,TYPE_B).
type(M_ID_258,TYPE_B).
type(M_ID_487,TYPE_B).
type(M_ID_345,TYPE_B).
type(M_ID_427,TYPE_C).
type(M_ID_175,TYPE_C).
type(M_ID_348,TYPE_B).
type(M_ID_28,TYPE_B).
type(M_ID_48,TYPE_B).
type(M_ID_12,TYPE_C).
type(M_ID_448,TYPE_C).
type(M_ID_9,TYPE_B).
type(M_ID_408,TYPE_B).
type(M_ID_462,TYPE_B).
type(M_ID_146,TYPE_B).
type(M_ID_423,TYPE_C).
type(M_ID_166,TYPE_C).
type(M_ID_233,TYPE_C).
type(M_ID_40,TYPE_C).
type(M_ID_193,TYPE_C).
type(M_ID_488,TYPE_B).
type(M_ID_210,TYPE_B).
type(M_ID_15,TYPE_C).
type(M_ID_220,TYPE_C).
type(M_ID_168,TYPE_C).
type(M_ID_299,TYPE_B).
type(M_ID_14,TYPE_B).
type(M_ID_339,TYPE_B).
type(M_ID_346,TYPE_B).
type(M_ID_69,TYPE_B).
type(M_ID_490,TYPE_B).
type(M_ID_134,TYPE_B).
type(M_ID_169,TYPE_C).
type(M_ID_11,TYPE_C).
type(M_ID_356,TYPE_B).
type(M_ID_256,TYPE_B).
type(M_ID_359,TYPE_B).
type(M_ID_459,TYPE_C).
type(M_ID_59,TYPE_B).
type(M_ID_438,TYPE_C).
type(M_ID_347,TYPE_B).
type(M_ID_287,TYPE_B).
type(M_ID_479,TYPE_B).
type(M_ID_80,TYPE_B).
type(M_ID_332,TYPE_B).
type(M_ID_296,TYPE_B).
type(M_ID_98,TYPE_B).
type(M_ID_376,TYPE_B).
type(M_ID_2,TYPE_B).
type(M_ID_1,TYPE_C).
type(M_ID_446,TYPE_C).
type(M_ID_278,TYPE_C).
type(M_ID_3,TYPE_C).
type(M_ID_409,TYPE_B).
type(M_ID_18,TYPE_C).
type(M_ID_243,TYPE_B).
type(M_ID_344,TYPE_B).
type(M_ID_100,TYPE_B).
type(M_ID_187,TYPE_B).
type(M_ID_322,TYPE_B).
type(M_ID_358,TYPE_B).
type(M_ID_290,TYPE_B).
type(M_ID_135,TYPE_B).
type(M_ID_357,TYPE_B).
type(M_ID_237,TYPE_C).
type(M_ID_22,TYPE_C).
type(M_ID_251,TYPE_C).
type(M_ID_197,TYPE_C).
type(M_ID_161,TYPE_C).
type(M_ID_284,TYPE_B).
type(M_ID_380,TYPE_B).
type(M_ID_435,TYPE_C).
type(M_ID_170,TYPE_C).
type(M_ID_58,TYPE_C).
type(M_ID_75,TYPE_C).
type(M_ID_226,TYPE_B).
type(M_ID_190,TYPE_C).
type(M_ID_236,TYPE_C).
type(M_ID_269,TYPE_C).
type(M_ID_305,TYPE_B).
type(M_ID_306,TYPE_B).
type(M_ID_354,TYPE_B).
type(M_ID_229,TYPE_B).
type(M_ID_244,TYPE_C).
type(M_ID_308,TYPE_C).
type(M_ID_455,TYPE_C).
type(M_ID_468,TYPE_B).
type(M_ID_309,TYPE_C).
type(M_ID_418,TYPE_C).
type(M_ID_349,TYPE_B).
type(M_ID_480,TYPE_B).
type(M_ID_83,TYPE_C).
type(M_ID_54,TYPE_B).
type(M_ID_328,TYPE_B).
type(M_ID_31,TYPE_C).
type(M_ID_86,TYPE_C).
type(M_ID_253,TYPE_B).
type(M_ID_272,TYPE_B).
type(M_ID_481,TYPE_B).
type(M_ID_194,TYPE_C).
type(M_ID_8,TYPE_C).
type(M_ID_302,TYPE_B).
type(M_ID_352,TYPE_B).
type(M_ID_442,TYPE_C).
type(M_ID_21,TYPE_C).
type(M_ID_469,TYPE_B).
type(M_ID_443,TYPE_C).
type(M_ID_425,TYPE_C).
type(M_ID_383,TYPE_C).
type(M_ID_406,TYPE_B).
type(M_ID_136,TYPE_B).
type(M_ID_34,TYPE_B).
type(M_ID_45,TYPE_C).
type(M_ID_477,TYPE_C).
type(M_ID_431,TYPE_C).
type(M_ID_246,TYPE_C).
type(M_ID_260,TYPE_B).
type(M_ID_451,TYPE_C).
type(M_ID_29,TYPE_C).
type(M_ID_109,TYPE_B).
type(M_ID_123,TYPE_C).
type(M_ID_445,TYPE_C).
type(M_ID_57,TYPE_C).
type(M_ID_351,TYPE_B).
type(M_ID_361,TYPE_B).
type(M_ID_171,TYPE_C).
type(M_ID_51,TYPE_C).
type(M_ID_327,TYPE_B).
type(M_ID_386,TYPE_B).
type(M_ID_26,TYPE_C).
type(M_ID_274,TYPE_B).
type(M_ID_311,TYPE_B).
type(M_ID_434,TYPE_C).
type(M_ID_108,TYPE_B).
type(M_ID_416,TYPE_C).
type(M_ID_276,TYPE_B).
type(M_ID_35,TYPE_C).
type(M_ID_407,TYPE_B).
type(M_ID_214,TYPE_C).
type(M_ID_254,TYPE_C).
type(M_ID_215,TYPE_B).
type(M_ID_291,TYPE_B).
type(M_ID_398,TYPE_B).
type(M_ID_382,TYPE_B).
type(M_ID_252,TYPE_C).
type(M_ID_163,TYPE_C).
type(M_ID_313,TYPE_B).
type(M_ID_16,TYPE_C).
type(M_ID_316,TYPE_B).
type(M_ID_391,TYPE_B).
type(M_ID_318,TYPE_B).
type(M_ID_186,TYPE_B).
type(M_ID_467,TYPE_B).
type(M_ID_464,TYPE_B).
type(M_ID_441,TYPE_C).
type(M_ID_364,TYPE_B).
type(M_ID_499,TYPE_B).
type(M_ID_392,TYPE_B).
type(M_ID_321,TYPE_B).
type(M_ID_331,TYPE_C).
type(M_ID_183,TYPE_C).
type(M_ID_62,TYPE_B).
type(M_ID_267,TYPE_B).
type(M_ID_387,TYPE_B).
type(M_ID_162,TYPE_B).
type(M_ID_307,TYPE_B).
type(M_ID_99,TYPE_C).
type(M_ID_283,TYPE_B).
type(M_ID_292,TYPE_B).
type(M_ID_63,TYPE_C).
type(M_ID_5,TYPE_B).
type(M_ID_159,TYPE_C).
type(M_ID_304,TYPE_B).
type(M_ID_165,TYPE_C).
type(M_ID_49,TYPE_B).
type(M_ID_360,TYPE_B).
type(M_ID_475,TYPE_B).
type(M_ID_44,TYPE_C).
type(M_ID_497,TYPE_B).
type(M_ID_337,TYPE_B).
type(M_ID_20,TYPE_B).
type(M_ID_410,TYPE_C).
type(M_ID_265,TYPE_B).
type(M_ID_317,TYPE_B).
type(M_ID_195,TYPE_C).
type(M_ID_280,TYPE_C).
type(M_ID_336,TYPE_B).
type(M_ID_444,TYPE_C).
type(M_ID_437,TYPE_C).
type(M_ID_300,TYPE_B).
type(M_ID_496,TYPE_B).
type(M_ID_67,TYPE_C).
type(M_ID_27,TYPE_B).
type(M_ID_184,TYPE_C).
type(M_ID_90,TYPE_B).
type(M_ID_211,TYPE_C).
type(M_ID_221,TYPE_C).
type(M_ID_78,TYPE_B).
type(M_ID_286,TYPE_B).
type(M_ID_120,TYPE_B).
type(M_ID_36,TYPE_B).
type(M_ID_61,TYPE_B).
type(M_ID_227,TYPE_C).
type(M_ID_325,TYPE_B).
type(M_ID_365,TYPE_B).
type(M_ID_439,TYPE_C).
type(M_ID_239,TYPE_C).
type(M_ID_126,TYPE_B).
type(M_ID_137,TYPE_B).
type(M_ID_118,TYPE_B).
type(M_ID_46,TYPE_C).
type(M_ID_143,TYPE_C).
type(M_ID_417,TYPE_C).
type(M_ID_400,TYPE_B).
type(M_ID_281,TYPE_C).
type(M_ID_426,TYPE_C).
type(M_ID_285,TYPE_B).
type(M_ID_282,TYPE_C).
type(M_ID_230,TYPE_B).
type(M_ID_249,TYPE_C).
type(M_ID_428,TYPE_C).
type(M_ID_397,TYPE_B).
