active(D42).
active(D147).
active(D186).
active(D3).
active(D5).
active(D39).
active(D78).
active(D142).
active(D182).
active(D185).
active(D119).
active(D34).
active(D65).
active(D66).
active(D143).
active(D154).
active(D181).
active(D114).
active(D19).
active(D133).
active(D132).
active(D141).
active(D73).
active(D76).
active(D113).
active(D70).
active(D77).
active(D111).
active(D62).
active(D179).
active(D2).
active(D17).
active(D120).
active(D130).
active(D131).
active(D129).
active(D188).
active(D7).
active(D9).
active(D14).
active(D36).
active(D40).
active(D123).
active(D135).
active(D150).
active(D155).
active(D175).
active(D98).
active(D88).
active(D124).
active(D139).
active(D168).
active(D89).
active(D138).
active(D144).
active(D55).
active(D110).
active(D156).
