g41L(M1).
g67N(M1).
g210W(M1).
g215FY(M1).
g219EQ(M1).
g41L(M2).
g67N(M2).
g70R(M2).
g210W(M2).
g219EQ(M2).
g41L(M3).
g67N(M3).
g210W(M3).
g215FY(M3).
g219EQ(M3).
g41L(M4).
g67N(M4).
g70R(M4).
g210W(M4).
g215FY(M4).
g219EQ(M4).
g210W(M5).
g41L(M6).
g70R(M6).
g210W(M6).
g215FY(M6).
g219EQ(M6).
g41L(M7).
g210W(M7).
g215FY(M7).
g41L(M8).
g67N(M8).
g210W(M8).
g215FY(M8).
g219EQ(M8).
g41L(M9).
g210W(M9).
g41L(M10).
g67N(M10).
g210W(M10).
g41L(M11).
g67N(M11).
g70R(M11).
g210W(M11).
g215FY(M11).
g219EQ(M11).
g41L(M12).
g67N(M12).
g210W(M12).
g215FY(M12).
g219EQ(M12).
g41L(M13).
g67N(M13).
g210W(M13).
g215FY(M13).
g219EQ(M13).
g67N(M14).
g70R(M14).
g219EQ(M14).
g41L(M15).
g67N(M15).
g70R(M15).
g210W(M15).
g215FY(M15).
g219EQ(M15).
g210W(M16).
g41L(M17).
g210W(M17).
g215FY(M17).
g41L(M18).
g67N(M18).
g210W(M18).
g215FY(M18).
g219EQ(M18).
g41L(M19).
g67N(M19).
g70R(M19).
g210W(M19).
g215FY(M19).
g219EQ(M19).
g41L(M20).
g67N(M20).
g70R(M20).
g210W(M20).
g215FY(M20).
g219EQ(M20).
g41L(M21).
g210W(M21).
g41L(M22).
g67N(M22).
g70R(M22).
g210W(M22).
g215FY(M22).
g219EQ(M22).
g67N(M23).
g210W(M23).
g219EQ(M23).
g41L(M24).
g210W(M24).
g41L(M25).
g67N(M25).
g70R(M25).
g210W(M25).
g215FY(M25).
g219EQ(M25).
g41L(M26).
g67N(M26).
g210W(M26).
g215FY(M26).
g219EQ(M26).
g41L(M27).
g67N(M27).
g70R(M27).
g210W(M27).
g215FY(M27).
g219EQ(M27).
g67N(M28).
g70R(M28).
g219EQ(M28).
g41L(M29).
g67N(M29).
g70R(M29).
g210W(M29).
g215FY(M29).
g219EQ(M29).
g41L(M30).
g67N(M30).
g210W(M30).
g41L(M31).
g67N(M31).
g210W(M31).
g215FY(M31).
g219EQ(M31).
g41L(M32).
g67N(M32).
g210W(M32).
g215FY(M32).
g219EQ(M32).
g41L(M33).
g67N(M33).
g210W(M33).
g215FY(M33).
g219EQ(M33).
g41L(M34).
g67N(M34).
g70R(M34).
g210W(M34).
g215FY(M34).
g219EQ(M34).
g41L(M35).
g210W(M35).
g70R(M36).
g210W(M36).
g215FY(M36).
g219EQ(M36).
g41L(M37).
g67N(M37).
g70R(M37).
g210W(M37).
g215FY(M37).
g219EQ(M37).
g41L(M38).
g210W(M38).
g215FY(M38).
g41L(M39).
g67N(M39).
g70R(M39).
g210W(M39).
g215FY(M39).
g219EQ(M39).
g41L(M40).
g67N(M40).
g70R(M40).
g210W(M40).
g215FY(M40).
g219EQ(M40).
g41L(M41).
g67N(M41).
g210W(M41).
g215FY(M41).
g67N(M42).
g70R(M42).
g219EQ(M42).
g67N(M43).
g70R(M43).
g210W(M43).
g219EQ(M43).
g41L(M44).
g67N(M44).
g70R(M44).
g210W(M44).
g215FY(M44).
g219EQ(M44).
g41L(M45).
g67N(M45).
g70R(M45).
g210W(M45).
g215FY(M45).
g219EQ(M45).
g41L(M46).
g67N(M46).
g70R(M46).
g210W(M46).
g215FY(M46).
g219EQ(M46).
g41L(M47).
g67N(M47).
g210W(M47).
g215FY(M47).
g219EQ(M47).
g41L(M48).
g67N(M48).
g210W(M48).
g215FY(M48).
g219EQ(M48).
g210W(M49).
g41L(M50).
g67N(M50).
g210W(M50).
g215FY(M50).
g219EQ(M50).
g67N(M51).
g70R(M51).
g210W(M51).
g219EQ(M51).
g210W(M52).
g215FY(M52).
g41L(M53).
g67N(M53).
g70R(M53).
g210W(M53).
g215FY(M53).
g219EQ(M53).
g41L(M54).
g210W(M54).
g215FY(M54).
g41L(M55).
g67N(M55).
g70R(M55).
g210W(M55).
g215FY(M55).
g219EQ(M55).
g41L(M56).
g67N(M56).
g70R(M56).
g210W(M56).
g215FY(M56).
g219EQ(M56).
g67N(M57).
g210W(M57).
g41L(M58).
g67N(M58).
g70R(M58).
g210W(M58).
g215FY(M58).
g219EQ(M58).
g41L(M59).
g70R(M59).
g210W(M59).
g219EQ(M60).
g41L(M61).
g67N(M61).
g70R(M61).
g210W(M61).
g215FY(M61).
g219EQ(M61).
g41L(M62).
g210W(M62).
g215FY(M62).
g67N(M63).
g70R(M63).
g219EQ(M63).
g67N(M64).
g70R(M64).
g219EQ(M64).
g41L(M65).
g67N(M65).
g210W(M65).
g219EQ(M65).
g41L(M66).
g67N(M66).
g210W(M66).
g215FY(M66).
g219EQ(M66).
g41L(M67).
g210W(M67).
g67N(M68).
g210W(M68).
g219EQ(M68).
g41L(M69).
g67N(M69).
g70R(M69).
g210W(M69).
g215FY(M69).
g219EQ(M69).
g210W(M70).
g219EQ(M70).
g70R(M71).
g219EQ(M71).
g41L(M72).
g67N(M72).
g70R(M72).
g210W(M72).
g219EQ(M72).
g67N(M73).
g70R(M73).
g210W(M73).
g219EQ(M73).
g41L(M147).
g70R(M147).
g210W(M147).
g219EQ(M147).
g67N(M148).
g210W(M148).
g219EQ(M148).
g41L(M149).
g67N(M149).
g70R(M149).
g210W(M149).
g215FY(M149).
g219EQ(M149).
g41L(M150).
g67N(M150).
g70R(M150).
g210W(M150).
g215FY(M150).
g219EQ(M150).
g41L(M151).
g67N(M151).
g70R(M151).
g210W(M151).
g215FY(M151).
g219EQ(M151).
g41L(M152).
g67N(M152).
g70R(M152).
g210W(M152).
g215FY(M152).
g219EQ(M152).
g41L(M153).
g67N(M153).
g70R(M153).
g210W(M153).
g215FY(M153).
g219EQ(M153).
g41L(M154).
g67N(M154).
g210W(M154).
g215FY(M154).
g219EQ(M154).
g41L(M155).
g67N(M155).
g210W(M155).
g215FY(M155).
g219EQ(M155).
g41L(M156).
g67N(M156).
g70R(M156).
g210W(M156).
g219EQ(M156).
g67N(M157).
g210W(M157).
g219EQ(M157).
g41L(M158).
g67N(M158).
g70R(M158).
g210W(M158).
g215FY(M158).
g219EQ(M158).
g41L(M159).
g67N(M159).
g70R(M159).
g210W(M159).
g215FY(M159).
g219EQ(M159).
g41L(M160).
g67N(M160).
g70R(M160).
g210W(M160).
g215FY(M160).
g219EQ(M160).
g41L(M161).
g67N(M161).
g210W(M161).
g215FY(M161).
g219EQ(M161).
g41L(M162).
g67N(M162).
g70R(M162).
g219EQ(M162).
g41L(M163).
g67N(M163).
g210W(M163).
g215FY(M163).
g219EQ(M163).
g41L(M164).
g67N(M164).
g70R(M164).
g210W(M164).
g219EQ(M164).
g41L(M165).
g67N(M165).
g210W(M165).
g41L(M166).
g70R(M166).
g219EQ(M166).
g67N(M167).
g70R(M167).
g210W(M167).
g219EQ(M167).
g41L(M168).
g67N(M168).
g210W(M168).
g219EQ(M168).
g41L(M169).
g67N(M169).
g70R(M169).
g210W(M169).
g41L(M170).
g67N(M170).
g210W(M170).
g219EQ(M170).
g41L(M171).
g67N(M171).
g70R(M171).
g210W(M171).
g215FY(M171).
g219EQ(M171).
g41L(M172).
g210W(M172).
g215FY(M172).
g41L(M173).
g67N(M173).
g210W(M173).
g219EQ(M173).
g41L(M174).
g210W(M174).
g67N(M175).
g70R(M175).
g210W(M175).
g215FY(M175).
g219EQ(M175).
g41L(M176).
g67N(M176).
g70R(M176).
g210W(M176).
g215FY(M176).
g219EQ(M176).
g67N(M177).
g70R(M177).
g219EQ(M177).
g41L(M178).
g67N(M178).
g70R(M178).
g210W(M178).
g215FY(M178).
g219EQ(M178).
g67N(M179).
g70R(M179).
g210W(M179).
g219EQ(M179).
g41L(M180).
g67N(M180).
g70R(M180).
g210W(M180).
g215FY(M180).
g219EQ(M180).
g41L(M181).
g67N(M181).
g70R(M181).
g210W(M181).
g215FY(M181).
g219EQ(M181).
g41L(M182).
g67N(M182).
g70R(M182).
g210W(M182).
g215FY(M182).
g219EQ(M182).
g41L(M183).
g67N(M183).
g210W(M183).
g215FY(M183).
g41L(M184).
g67N(M184).
g70R(M184).
g210W(M184).
g215FY(M184).
g219EQ(M184).
g67N(M185).
g70R(M185).
g210W(M185).
g219EQ(M185).
g210W(M186).
g215FY(M186).
g219EQ(M186).
g41L(M187).
g67N(M187).
g70R(M187).
g210W(M187).
g215FY(M187).
g219EQ(M187).
g41L(M188).
g67N(M188).
g70R(M188).
g210W(M188).
g215FY(M188).
g219EQ(M188).
g67N(M189).
g70R(M189).
g219EQ(M189).
g41L(M190).
g67N(M190).
g210W(M190).
g215FY(M190).
g219EQ(M190).
g41L(M191).
g210W(M191).
g215FY(M191).
g41L(M192).
g67N(M192).
g210W(M192).
g210W(M193).
g41L(M194).
g67N(M194).
g210W(M194).
g215FY(M194).
g41L(M195).
g67N(M195).
g210W(M195).
g215FY(M195).
g219EQ(M195).
g41L(M196).
g67N(M196).
g210W(M196).
g215FY(M196).
g41L(M197).
g67N(M197).
g70R(M197).
g210W(M197).
g219EQ(M197).
g41L(M198).
g67N(M198).
g210W(M198).
g215FY(M198).
g219EQ(M198).
g41L(M199).
g210W(M199).
g215FY(M199).
g41L(M200).
g67N(M200).
g210W(M200).
g215FY(M200).
g219EQ(M200).
g41L(M201).
g67N(M201).
g70R(M201).
g210W(M201).
g215FY(M201).
g219EQ(M201).
g41L(M202).
g67N(M202).
g70R(M202).
g210W(M202).
g215FY(M202).
g219EQ(M202).
g41L(M203).
g67N(M203).
g67N(M204).
g70R(M204).
g219EQ(M204).
g41L(M205).
g67N(M205).
g70R(M205).
g210W(M205).
g219EQ(M205).
g67N(M206).
g70R(M206).
g210W(M206).
g219EQ(M206).
g67N(M207).
g70R(M207).
g219EQ(M207).
g41L(M208).
g67N(M208).
g70R(M208).
g210W(M208).
g219EQ(M208).
g41L(M209).
g67N(M209).
g210W(M209).
g215FY(M209).
g219EQ(M209).
g41L(M210).
g67N(M210).
g70R(M210).
g210W(M210).
g215FY(M210).
g219EQ(M210).
g41L(M211).
g210W(M211).
g215FY(M211).
g41L(M212).
g210W(M212).
g215FY(M212).
g41L(M213).
g67N(M213).
g70R(M213).
g219EQ(M213).
g41L(M214).
g67N(M214).
g70R(M214).
g210W(M214).
g215FY(M214).
g219EQ(M214).
g41L(M215).
g67N(M215).
g70R(M215).
g210W(M215).
g215FY(M215).
g219EQ(M215).
g41L(M216).
g67N(M216).
g70R(M216).
g210W(M216).
g219EQ(M216).
g41L(M217).
g210W(M217).
g215FY(M217).
g41L(M218).
g67N(M218).
g70R(M218).
g210W(M218).
g219EQ(M218).
g41L(M219).
g210W(M219).
g215FY(M219).
g41L(M220).
g67N(M220).
g70R(M220).
g210W(M220).
g215FY(M220).
g219EQ(M220).
g210W(M221).
g70R(M222).
g41L(M223).
g67N(M223).
g210W(M223).
g215FY(M223).
g219EQ(M223).
g219EQ(M224).
g67N(M225).
g70R(M225).
g210W(M225).
g219EQ(M225).
g41L(M226).
g67N(M226).
g70R(M226).
g210W(M226).
g215FY(M226).
g219EQ(M226).
g41L(M227).
g67N(M227).
g70R(M227).
g210W(M227).
g215FY(M227).
g219EQ(M227).
g67N(M228).
g70R(M228).
g210W(M228).
g219EQ(M228).
g41L(M229).
g67N(M229).
g70R(M229).
g210W(M229).
g215FY(M229).
g219EQ(M229).
g41L(M230).
g67N(M230).
g70R(M230).
g210W(M230).
g215FY(M230).
g219EQ(M230).
g41L(M231).
g210W(M231).
g41L(M232).
g67N(M232).
g70R(M232).
g210W(M232).
g215FY(M232).
g219EQ(M232).
g41L(M233).
g67N(M233).
g70R(M233).
g210W(M233).
g215FY(M233).
g219EQ(M233).
g41L(M234).
g67N(M234).
g210W(M234).
g215FY(M234).
g219EQ(M234).
g67N(M235).
g70R(M235).
g210W(M235).
g219EQ(M235).
g67N(M236).
g210W(M236).
g219EQ(M236).
g41L(M237).
g70R(M237).
g219EQ(M237).
g67N(M238).
g70R(M238).
g219EQ(M238).
g67N(M239).
g210W(M239).
g215FY(M239).
g219EQ(M239).
g41L(M240).
g67N(M240).
g70R(M240).
g210W(M240).
g215FY(M240).
g219EQ(M240).
g41L(M241).
g67N(M241).
g70R(M241).
g210W(M241).
g215FY(M241).
g219EQ(M241).
g41L(M242).
g67N(M242).
g70R(M242).
g210W(M242).
g215FY(M242).
g219EQ(M242).
g41L(M243).
g67N(M243).
g41L(M244).
g67N(M244).
g70R(M244).
g210W(M244).
g215FY(M244).
g219EQ(M244).
g67N(M245).
g70R(M245).
g210W(M245).
g219EQ(M245).
g41L(M246).
g210W(M246).
g215FY(M246).
g41L(M247).
g67N(M247).
g70R(M247).
g210W(M247).
g215FY(M247).
g219EQ(M247).
g41L(M248).
g67N(M248).
g210W(M248).
g215FY(M248).
g219EQ(M248).
g67N(M249).
g70R(M249).
g210W(M249).
g219EQ(M249).
g41L(M250).
g67N(M250).
g210W(M250).
g215FY(M250).
g219EQ(M250).
g210W(M251).
g41L(M252).
g67N(M252).
g210W(M252).
g215FY(M252).
g219EQ(M252).
g210W(M253).
g219EQ(M253).
g41L(M254).
g67N(M254).
g70R(M254).
g210W(M254).
g215FY(M254).
g41L(M255).
g67N(M255).
g70R(M255).
g210W(M255).
g215FY(M255).
g219EQ(M255).
g67N(M256).
g70R(M256).
g210W(M256).
g219EQ(M256).
g67N(M257).
g70R(M257).
g210W(M257).
g219EQ(M257).
g219EQ(M258).
g41L(M259).
g67N(M259).
g210W(M259).
g215FY(M259).
g219EQ(M259).
g41L(M260).
g67N(M260).
g70R(M260).
g210W(M260).
g215FY(M260).
g41L(M261).
g67N(M261).
g210W(M261).
g215FY(M261).
g219EQ(M261).
g41L(M262).
g67N(M262).
g70R(M262).
g210W(M262).
g215FY(M262).
g219EQ(M262).
g41L(M263).
g210W(M263).
g215FY(M263).
g41L(M264).
g210W(M264).
g215FY(M264).
g41L(M265).
g67N(M265).
g70R(M265).
g210W(M265).
g215FY(M265).
g219EQ(M265).
g41L(M266).
g67N(M266).
g210W(M266).
g215FY(M266).
g219EQ(M266).
g70R(M267).
g219EQ(M267).
g41L(M268).
g67N(M268).
g210W(M268).
g215FY(M268).
g219EQ(M268).
g41L(M269).
g67N(M269).
g210W(M269).
g215FY(M269).
g70R(M270).
g210W(M270).
g219EQ(M270).
g67N(M271).
g70R(M271).
g219EQ(M271).
g41L(M272).
g210W(M272).
g219EQ(M272).
g41L(M273).
g210W(M273).
g215FY(M273).
g219EQ(M273).
g41L(M274).
g67N(M274).
g70R(M274).
g210W(M274).
g215FY(M274).
g219EQ(M274).
g41L(M275).
g67N(M275).
g70R(M275).
g210W(M275).
g215FY(M275).
g219EQ(M275).
g41L(M276).
g67N(M276).
g70R(M276).
g210W(M276).
g215FY(M276).
g219EQ(M276).
g41L(M277).
g67N(M277).
g70R(M277).
g210W(M277).
g215FY(M277).
g219EQ(M277).
g41L(M278).
g67N(M278).
g70R(M278).
g210W(M278).
g215FY(M278).
g219EQ(M278).
g41L(M279).
g67N(M279).
g210W(M279).
g215FY(M279).
g219EQ(M279).
g41L(M280).
g67N(M280).
g70R(M280).
g210W(M280).
g215FY(M280).
g219EQ(M280).
g41L(M281).
g67N(M281).
g70R(M281).
g210W(M281).
g215FY(M281).
g219EQ(M281).
g41L(M282).
g67N(M282).
g210W(M282).
g215FY(M282).
g219EQ(M282).
g41L(M283).
g67N(M283).
g70R(M283).
g210W(M283).
g215FY(M283).
g219EQ(M283).
g67N(M284).
g70R(M284).
g219EQ(M284).
g67N(M285).
g70R(M285).
g219EQ(M285).
g41L(M286).
g67N(M286).
g210W(M286).
g215FY(M286).
g219EQ(M286).
g41L(M287).
g67N(M287).
g70R(M287).
g210W(M287).
g215FY(M287).
g219EQ(M287).
g41L(M288).
g67N(M288).
g210W(M288).
g215FY(M288).
g219EQ(M288).
g67N(M289).
g70R(M289).
g210W(M289).
g219EQ(M289).
g41L(M290).
g67N(M290).
g210W(M290).
g219EQ(M290).
g41L(M291).
g70R(M291).
g210W(M291).
g215FY(M291).
g41L(M292).
g67N(M292).
g210W(M292).
g215FY(M292).
g219EQ(M292).
g41L(M293).
g210W(M293).
g215FY(M293).
g219EQ(M293).
g41L(M294).
g67N(M294).
g210W(M294).
g215FY(M294).
g219EQ(M294).
g67N(M295).
g70R(M295).
g210W(M295).
g219EQ(M295).
g41L(M296).
g67N(M296).
g210W(M296).
g215FY(M296).
g219EQ(M296).
g41L(M297).
g67N(M297).
g70R(M297).
g210W(M297).
g215FY(M297).
g219EQ(M297).
g41L(M298).
g210W(M298).
g215FY(M298).
g67N(M299).
g210W(M299).
g219EQ(M299).
g210W(M300).
g41L(M301).
g210W(M301).
g219EQ(M301).
g41L(M302).
g67N(M302).
g70R(M302).
g210W(M302).
g215FY(M302).
g219EQ(M302).
g41L(M303).
g67N(M303).
g210W(M303).
g215FY(M303).
g219EQ(M303).
g41L(M304).
g67N(M304).
g70R(M304).
g210W(M304).
g215FY(M304).
g219EQ(M304).
g41L(M305).
g67N(M305).
g210W(M305).
g215FY(M305).
g219EQ(M305).
g41L(M306).
g210W(M306).
g215FY(M306).
g41L(M307).
g67N(M307).
g70R(M307).
g210W(M307).
g215FY(M307).
g219EQ(M307).
g67N(M308).
g70R(M308).
g210W(M308).
g219EQ(M308).
g41L(M309).
g67N(M309).
g210W(M309).
g215FY(M309).
g219EQ(M309).
g67N(M310).
g70R(M310).
g219EQ(M310).
g41L(M311).
g210W(M311).
g215FY(M311).
g219EQ(M311).
g41L(M312).
g67N(M312).
g210W(M312).
g215FY(M312).
g219EQ(M312).
g41L(M313).
g67N(M313).
g41L(M314).
g210W(M314).
g219EQ(M314).
g41L(M315).
g210W(M315).
g67N(M316).
g70R(M316).
g210W(M316).
g219EQ(M316).
g41L(M317).
g67N(M317).
g210W(M317).
g215FY(M317).
g219EQ(M317).
g67N(M318).
g70R(M318).
g210W(M318).
g219EQ(M318).
g41L(M319).
g67N(M319).
g70R(M319).
g210W(M319).
g215FY(M319).
g219EQ(M319).
g41L(M320).
g67N(M320).
g70R(M320).
g210W(M320).
g215FY(M320).
g219EQ(M320).
g41L(M321).
g67N(M321).
g70R(M321).
g210W(M321).
g215FY(M321).
g219EQ(M321).
g41L(M322).
g67N(M322).
g70R(M322).
g210W(M322).
g219EQ(M322).
g41L(M323).
g67N(M323).
g210W(M323).
g215FY(M323).
g219EQ(M323).
g41L(M324).
g67N(M324).
g70R(M324).
g210W(M324).
g215FY(M324).
g219EQ(M324).
g41L(M325).
g67N(M325).
g210W(M325).
g215FY(M325).
g219EQ(M325).
g67N(M326).
g70R(M326).
g219EQ(M326).
g210W(M327).
g41L(M328).
g67N(M328).
g210W(M328).
g215FY(M328).
g219EQ(M328).
g41L(M329).
g67N(M329).
g70R(M329).
g210W(M329).
g215FY(M329).
g219EQ(M329).
g41L(M330).
g67N(M330).
g70R(M330).
g210W(M330).
g215FY(M330).
g219EQ(M330).
g67N(M331).
g70R(M331).
g210W(M331).
g215FY(M331).
g219EQ(M331).
g41L(M332).
g67N(M332).
g70R(M332).
g210W(M332).
g215FY(M332).
g219EQ(M332).
g67N(M333).
g70R(M333).
g210W(M333).
g219EQ(M333).
g41L(M334).
g67N(M334).
g210W(M334).
g215FY(M334).
g219EQ(M334).
g210W(M335).
g67N(M336).
g70R(M336).
g219EQ(M336).
g41L(M337).
g67N(M337).
g70R(M337).
g210W(M337).
g215FY(M337).
g219EQ(M337).
g41L(M338).
g67N(M338).
g70R(M338).
g210W(M338).
g215FY(M338).
g219EQ(M338).
g67N(M339).
g70R(M339).
g210W(M339).
g219EQ(M339).
g67N(M340).
g70R(M340).
g210W(M340).
g219EQ(M340).
g67N(M341).
g70R(M341).
g210W(M341).
g219EQ(M341).
g41L(M342).
g67N(M342).
g70R(M342).
g210W(M342).
g219EQ(M342).
g41L(M343).
g67N(M343).
g210W(M343).
g215FY(M343).
g219EQ(M343).
g67N(M344).
g70R(M344).
g210W(M344).
g219EQ(M344).
g41L(M345).
g67N(M345).
g70R(M345).
g210W(M345).
g215FY(M345).
g219EQ(M345).
g41L(M346).
g67N(M346).
g70R(M346).
g210W(M346).
g215FY(M346).
g219EQ(M346).
g41L(M347).
g210W(M347).
g215FY(M347).
g67N(M348).
g70R(M348).
g215FY(M348).
g219EQ(M348).
g67N(M349).
g210W(M349).
g219EQ(M349).
g41L(M350).
g67N(M350).
g70R(M350).
g210W(M350).
g215FY(M350).
g219EQ(M350).
g41L(M351).
g67N(M351).
g70R(M351).
g210W(M351).
g215FY(M351).
g219EQ(M351).
g67N(M352).
g70R(M352).
g219EQ(M352).
g41L(M353).
g67N(M353).
g70R(M353).
g210W(M353).
g215FY(M353).
g219EQ(M353).
g67N(M354).
g70R(M354).
g210W(M354).
g219EQ(M354).
g41L(M355).
g67N(M355).
g70R(M355).
g210W(M355).
g215FY(M355).
g219EQ(M355).
g41L(M356).
g67N(M356).
g70R(M356).
g210W(M356).
g215FY(M356).
g219EQ(M356).
g41L(M357).
g67N(M357).
g70R(M357).
g210W(M357).
g219EQ(M357).
g41L(M358).
g67N(M358).
g210W(M358).
g41L(M359).
g67N(M359).
g70R(M359).
g210W(M359).
g215FY(M359).
g219EQ(M359).
g67N(M360).
g70R(M360).
g210W(M360).
g219EQ(M360).
g67N(M361).
g70R(M361).
g210W(M361).
g219EQ(M361).
g41L(M362).
g210W(M362).
g215FY(M362).
g219EQ(M362).
g41L(M363).
g67N(M363).
g210W(M363).
g215FY(M363).
g219EQ(M363).
g41L(M364).
g67N(M364).
g210W(M364).
g215FY(M364).
g219EQ(M364).
