active(D1).
active(D10).
active(D101).
active(D102).
active(D103).
active(D106).
active(D107).
active(D108).
active(D11).
active(D12).
active(D13).
active(D134).
active(D135).
active(D136).
active(D138).
active(D140).
active(D141).
active(D144).
active(D145).
active(D146).
active(D147).
active(D15).
active(D17).
active(D19).
active(D192).
active(D193).
active(D195).
active(D196).
active(D197).
active(D198).
active(D199).
active(D2).
active(D20).
active(D200).
active(D201).
active(D202).
active(D203).
active(D204).
active(D205).
active(D21).
active(D22).
active(D226).
active(D227).
active(D228).
active(D229).
active(D231).
active(D232).
active(D234).
active(D236).
active(D239).
active(D23_2).
active(D242).
active(D245).
active(D247).
active(D249).
active(D25).
active(D252).
active(D253).
active(D254).
active(D255).
active(D26).
active(D272).
active(D275).
active(D277).
active(D279).
active(D28).
active(D281).
active(D283).
active(D284).
active(D288).
active(D29).
active(D290).
active(D291).
active(D292).
active(D30).
active(D31).
active(D32).
active(D33).
active(D34).
active(D35).
active(D36).
active(D37).
active(D38).
active(D42).
active(D43).
active(D44).
active(D45).
active(D46).
active(D47).
active(D48).
active(D49).
active(D5).
active(D51).
active(D52).
active(D53).
active(D55).
active(D58).
active(D6).
active(D7).
active(D84).
active(D85_2).
active(D86).
active(D87).
active(D88).
active(D89).
active(D9).
active(D91).
active(D92).
active(D93).
active(D95).
active(D96).
active(D98).
active(D99).
active(D100).
active(D104).
active(D105).
active(D109).
active(D137).
active(D139).
active(D14).
active(D142).
active(D143).
active(D148).
active(D16).
active(D18).
active(D191).
active(D206).
active(D230).
active(D233).
active(D235).
active(D237).
active(D238).
active(D23_1).
active(D24).
active(D240).
active(D241).
active(D243).
active(D244).
active(D246).
active(D248).
active(D250).
active(D251).
active(D27).
active(D273).
active(D274).
active(D278).
active(D286).
active(D289).
active(D3).
active(D39).
active(D4).
active(D40).
active(D41).
active(D50).
active(D54).
active(D56).
active(D57).
active(D8).
active(D85_1).
active(D90).
active(D94).
active(D97).
