type(M_ID_465,TYPE_C).
type(M_ID_301,TYPE_C).
type(M_ID_240,TYPE_B).
type(M_ID_384,TYPE_C).
type(M_ID_452,TYPE_B).
type(M_ID_56,TYPE_C).
type(M_ID_419,TYPE_B).
type(M_ID_355,TYPE_C).
type(M_ID_66,TYPE_B).
type(M_ID_334,TYPE_C).
type(M_ID_498,TYPE_C).
type(M_ID_25,TYPE_B).
type(M_ID_17,TYPE_B).
type(M_ID_77,TYPE_C).
type(M_ID_13,TYPE_C).
type(M_ID_116,TYPE_C).
type(M_ID_393,TYPE_B).
type(M_ID_133,TYPE_C).
type(M_ID_234,TYPE_B).
type(M_ID_125,TYPE_C).
type(M_ID_491,TYPE_C).
type(M_ID_271,TYPE_C).
type(M_ID_429,TYPE_B).
type(M_ID_115,TYPE_C).
type(M_ID_404,TYPE_C).
type(M_ID_38,TYPE_C).
type(M_ID_167,TYPE_B).
type(M_ID_433,TYPE_B).
type(M_ID_225,TYPE_C).
type(M_ID_461,TYPE_C).
type(M_ID_153,TYPE_C).
type(M_ID_208,TYPE_B).
type(M_ID_158,TYPE_B).
type(M_ID_110,TYPE_C).
type(M_ID_130,TYPE_C).
type(M_ID_329,TYPE_C).
type(M_ID_340,TYPE_C).
type(M_ID_55,TYPE_B).
type(M_ID_121,TYPE_C).
type(M_ID_84,TYPE_C).
type(M_ID_4,TYPE_C).
type(M_ID_42,TYPE_B).
type(M_ID_494,TYPE_C).
type(M_ID_128,TYPE_C).
type(M_ID_414,TYPE_B).
type(M_ID_106,TYPE_B).
type(M_ID_289,TYPE_C).
type(M_ID_74,TYPE_C).
type(M_ID_33,TYPE_B).
type(M_ID_172,TYPE_C).
type(M_ID_154,TYPE_C).
type(M_ID_390,TYPE_C).
type(M_ID_489,TYPE_C).
type(M_ID_185,TYPE_C).
type(M_ID_363,TYPE_C).
type(M_ID_389,TYPE_C).
type(M_ID_295,TYPE_C).
type(M_ID_139,TYPE_C).
type(M_ID_181,TYPE_C).
type(M_ID_424,TYPE_B).
type(M_ID_268,TYPE_C).
type(M_ID_478,TYPE_C).
type(M_ID_97,TYPE_C).
type(M_ID_235,TYPE_B).
type(M_ID_37,TYPE_C).
type(M_ID_248,TYPE_B).
type(M_ID_103,TYPE_C).
type(M_ID_440,TYPE_B).
type(M_ID_232,TYPE_B).
type(M_ID_457,TYPE_B).
type(M_ID_182,TYPE_B).
type(M_ID_142,TYPE_B).
type(M_ID_213,TYPE_B).
type(M_ID_124,TYPE_C).
type(M_ID_319,TYPE_C).
type(M_ID_228,TYPE_B).
type(M_ID_198,TYPE_B).
type(M_ID_294,TYPE_B).
type(M_ID_196,TYPE_B).
type(M_ID_72,TYPE_C).
type(M_ID_403,TYPE_C).
type(M_ID_303,TYPE_C).
type(M_ID_203,TYPE_B).
type(M_ID_326,TYPE_C).
type(M_ID_129,TYPE_C).
type(M_ID_486,TYPE_C).
type(M_ID_415,TYPE_B).
type(M_ID_173,TYPE_C).
type(M_ID_259,TYPE_B).
type(M_ID_114,TYPE_C).
type(M_ID_70,TYPE_B).
type(M_ID_95,TYPE_C).
type(M_ID_222,TYPE_B).
type(M_ID_476,TYPE_C).
type(M_ID_82,TYPE_B).
type(M_ID_430,TYPE_B).
type(M_ID_323,TYPE_C).
type(M_ID_450,TYPE_B).
type(M_ID_231,TYPE_C).
type(M_ID_343,TYPE_C).
type(M_ID_50,TYPE_C).
type(M_ID_314,TYPE_B).
type(M_ID_341,TYPE_B).
type(M_ID_94,TYPE_C).
type(M_ID_105,TYPE_C).
type(M_ID_373,TYPE_C).
type(M_ID_65,TYPE_C).
type(M_ID_245,TYPE_B).
type(M_ID_189,TYPE_B).
type(M_ID_492,TYPE_C).
type(M_ID_447,TYPE_B).
type(M_ID_330,TYPE_B).
type(M_ID_107,TYPE_B).
type(M_ID_362,TYPE_C).
type(M_ID_160,TYPE_B).
type(M_ID_263,TYPE_C).
type(M_ID_485,TYPE_C).
type(M_ID_141,TYPE_C).
type(M_ID_201,TYPE_B).
type(M_ID_192,TYPE_C).
type(M_ID_104,TYPE_C).
type(M_ID_333,TYPE_C).
type(M_ID_122,TYPE_C).
type(M_ID_399,TYPE_C).
type(M_ID_151,TYPE_C).
type(M_ID_179,TYPE_B).
type(M_ID_92,TYPE_C).
type(M_ID_266,TYPE_B).
type(M_ID_132,TYPE_C).
type(M_ID_39,TYPE_B).
type(M_ID_470,TYPE_C).
type(M_ID_247,TYPE_B).
type(M_ID_370,TYPE_C).
type(M_ID_223,TYPE_C).
type(M_ID_405,TYPE_C).
type(M_ID_255,TYPE_B).
type(M_ID_495,TYPE_C).
type(M_ID_155,TYPE_B).
type(M_ID_111,TYPE_C).
type(M_ID_454,TYPE_C).
type(M_ID_209,TYPE_B).
type(M_ID_30,TYPE_C).
type(M_ID_178,TYPE_B).
type(M_ID_81,TYPE_C).
type(M_ID_43,TYPE_B).
type(M_ID_156,TYPE_B).
type(M_ID_436,TYPE_B).
type(M_ID_73,TYPE_C).
type(M_ID_493,TYPE_C).
type(M_ID_500,TYPE_C).
type(M_ID_188,TYPE_B).
type(M_ID_279,TYPE_B).
type(M_ID_257,TYPE_C).
type(M_ID_367,TYPE_B).
type(M_ID_298,TYPE_C).
type(M_ID_145,TYPE_C).
type(M_ID_89,TYPE_C).
type(M_ID_474,TYPE_C).
type(M_ID_421,TYPE_B).
type(M_ID_174,TYPE_B).
type(M_ID_164,TYPE_B).
type(M_ID_288,TYPE_C).
type(M_ID_463,TYPE_C).
type(M_ID_24,TYPE_B).
type(M_ID_147,TYPE_C).
type(M_ID_315,TYPE_B).
type(M_ID_411,TYPE_B).
type(M_ID_293,TYPE_B).
type(M_ID_277,TYPE_C).
type(M_ID_85,TYPE_C).
type(M_ID_23,TYPE_C).
type(M_ID_140,TYPE_C).
type(M_ID_388,TYPE_C).
type(M_ID_473,TYPE_B).
type(M_ID_102,TYPE_C).
type(M_ID_472,TYPE_B).
type(M_ID_312,TYPE_C).
type(M_ID_402,TYPE_C).
type(M_ID_381,TYPE_C).
type(M_ID_258,TYPE_C).
type(M_ID_487,TYPE_C).
type(M_ID_345,TYPE_C).
type(M_ID_427,TYPE_B).
type(M_ID_175,TYPE_B).
type(M_ID_348,TYPE_C).
type(M_ID_28,TYPE_C).
type(M_ID_48,TYPE_C).
type(M_ID_12,TYPE_B).
type(M_ID_448,TYPE_B).
type(M_ID_9,TYPE_C).
type(M_ID_408,TYPE_C).
type(M_ID_462,TYPE_C).
type(M_ID_146,TYPE_C).
type(M_ID_423,TYPE_B).
type(M_ID_166,TYPE_B).
type(M_ID_233,TYPE_B).
type(M_ID_40,TYPE_B).
type(M_ID_193,TYPE_B).
type(M_ID_488,TYPE_C).
type(M_ID_210,TYPE_C).
type(M_ID_15,TYPE_B).
type(M_ID_220,TYPE_B).
type(M_ID_168,TYPE_B).
type(M_ID_299,TYPE_C).
type(M_ID_14,TYPE_C).
type(M_ID_339,TYPE_C).
type(M_ID_346,TYPE_C).
type(M_ID_69,TYPE_C).
type(M_ID_490,TYPE_C).
type(M_ID_134,TYPE_C).
type(M_ID_169,TYPE_B).
type(M_ID_11,TYPE_B).
type(M_ID_356,TYPE_C).
type(M_ID_256,TYPE_C).
type(M_ID_359,TYPE_C).
type(M_ID_459,TYPE_B).
type(M_ID_59,TYPE_C).
type(M_ID_438,TYPE_B).
type(M_ID_347,TYPE_C).
type(M_ID_287,TYPE_C).
type(M_ID_479,TYPE_C).
type(M_ID_80,TYPE_C).
type(M_ID_332,TYPE_C).
type(M_ID_296,TYPE_C).
type(M_ID_98,TYPE_C).
type(M_ID_376,TYPE_C).
type(M_ID_2,TYPE_C).
type(M_ID_1,TYPE_B).
type(M_ID_446,TYPE_B).
type(M_ID_278,TYPE_B).
type(M_ID_3,TYPE_B).
type(M_ID_409,TYPE_C).
type(M_ID_18,TYPE_B).
type(M_ID_243,TYPE_C).
type(M_ID_344,TYPE_C).
type(M_ID_100,TYPE_C).
type(M_ID_187,TYPE_C).
type(M_ID_322,TYPE_C).
type(M_ID_358,TYPE_C).
type(M_ID_290,TYPE_C).
type(M_ID_135,TYPE_C).
type(M_ID_357,TYPE_C).
type(M_ID_237,TYPE_B).
type(M_ID_22,TYPE_B).
type(M_ID_251,TYPE_B).
type(M_ID_197,TYPE_B).
type(M_ID_161,TYPE_B).
type(M_ID_284,TYPE_C).
type(M_ID_380,TYPE_C).
type(M_ID_435,TYPE_B).
type(M_ID_170,TYPE_B).
type(M_ID_58,TYPE_B).
type(M_ID_75,TYPE_B).
type(M_ID_226,TYPE_C).
type(M_ID_190,TYPE_B).
type(M_ID_236,TYPE_B).
type(M_ID_269,TYPE_B).
type(M_ID_305,TYPE_C).
type(M_ID_306,TYPE_C).
type(M_ID_354,TYPE_C).
type(M_ID_229,TYPE_C).
type(M_ID_244,TYPE_B).
type(M_ID_308,TYPE_B).
type(M_ID_455,TYPE_B).
type(M_ID_468,TYPE_C).
type(M_ID_309,TYPE_B).
type(M_ID_418,TYPE_B).
type(M_ID_349,TYPE_C).
type(M_ID_480,TYPE_C).
type(M_ID_83,TYPE_B).
type(M_ID_54,TYPE_C).
type(M_ID_328,TYPE_C).
type(M_ID_31,TYPE_B).
type(M_ID_86,TYPE_B).
type(M_ID_253,TYPE_C).
type(M_ID_272,TYPE_C).
type(M_ID_481,TYPE_C).
type(M_ID_194,TYPE_B).
type(M_ID_8,TYPE_B).
type(M_ID_302,TYPE_C).
type(M_ID_352,TYPE_C).
type(M_ID_442,TYPE_B).
type(M_ID_21,TYPE_B).
type(M_ID_469,TYPE_C).
type(M_ID_443,TYPE_B).
type(M_ID_425,TYPE_B).
type(M_ID_383,TYPE_B).
type(M_ID_406,TYPE_C).
type(M_ID_136,TYPE_C).
type(M_ID_34,TYPE_C).
type(M_ID_45,TYPE_B).
type(M_ID_477,TYPE_B).
type(M_ID_431,TYPE_B).
type(M_ID_246,TYPE_B).
type(M_ID_260,TYPE_C).
type(M_ID_451,TYPE_B).
type(M_ID_29,TYPE_B).
type(M_ID_109,TYPE_C).
type(M_ID_123,TYPE_B).
type(M_ID_445,TYPE_B).
type(M_ID_117,TYPE_C).
type(M_ID_262,TYPE_C).
type(M_ID_204,TYPE_B).
type(M_ID_378,TYPE_C).
type(M_ID_413,TYPE_C).
type(M_ID_60,TYPE_C).
type(M_ID_471,TYPE_C).
type(M_ID_275,TYPE_C).
type(M_ID_453,TYPE_B).
type(M_ID_148,TYPE_B).
type(M_ID_96,TYPE_C).
type(M_ID_241,TYPE_C).
type(M_ID_199,TYPE_B).
type(M_ID_466,TYPE_C).
type(M_ID_150,TYPE_C).
type(M_ID_52,TYPE_B).
type(M_ID_375,TYPE_B).
type(M_ID_460,TYPE_B).
type(M_ID_144,TYPE_C).
type(M_ID_212,TYPE_B).
type(M_ID_177,TYPE_B).
type(M_ID_372,TYPE_C).
type(M_ID_412,TYPE_C).
type(M_ID_202,TYPE_B).
type(M_ID_205,TYPE_B).
type(M_ID_366,TYPE_C).
type(M_ID_7,TYPE_B).
type(M_ID_270,TYPE_B).
type(M_ID_320,TYPE_B).
type(M_ID_238,TYPE_C).
type(M_ID_385,TYPE_C).
type(M_ID_216,TYPE_C).
type(M_ID_374,TYPE_C).
type(M_ID_112,TYPE_C).
type(M_ID_432,TYPE_B).
type(M_ID_449,TYPE_C).
type(M_ID_422,TYPE_B).
type(M_ID_297,TYPE_B).
type(M_ID_273,TYPE_C).
type(M_ID_353,TYPE_C).
type(M_ID_131,TYPE_C).
type(M_ID_91,TYPE_C).
type(M_ID_264,TYPE_B).
type(M_ID_218,TYPE_B).
type(M_ID_191,TYPE_B).
type(M_ID_32,TYPE_C).
type(M_ID_456,TYPE_B).
type(M_ID_71,TYPE_B).
type(M_ID_93,TYPE_C).
type(M_ID_47,TYPE_B).
type(M_ID_41,TYPE_C).
type(M_ID_88,TYPE_C).
type(M_ID_401,TYPE_C).
type(M_ID_149,TYPE_C).
type(M_ID_379,TYPE_C).
type(M_ID_87,TYPE_C).
type(M_ID_217,TYPE_C).
type(M_ID_19,TYPE_B).
type(M_ID_369,TYPE_C).
type(M_ID_342,TYPE_B).
type(M_ID_368,TYPE_C).
type(M_ID_10,TYPE_C).
type(M_ID_64,TYPE_B).
type(M_ID_224,TYPE_B).
type(M_ID_377,TYPE_C).
type(M_ID_420,TYPE_B).
type(M_ID_157,TYPE_B).
type(M_ID_310,TYPE_C).
type(M_ID_350,TYPE_C).
type(M_ID_219,TYPE_B).
type(M_ID_458,TYPE_B).
type(M_ID_371,TYPE_C).
type(M_ID_127,TYPE_C).
type(M_ID_207,TYPE_B).
type(M_ID_395,TYPE_C).
type(M_ID_394,TYPE_C).
type(M_ID_180,TYPE_B).
type(M_ID_152,TYPE_C).
type(M_ID_482,TYPE_C).
type(M_ID_484,TYPE_C).
type(M_ID_101,TYPE_C).
type(M_ID_483,TYPE_C).
type(M_ID_338,TYPE_C).
type(M_ID_6,TYPE_C).
type(M_ID_324,TYPE_C).
type(M_ID_53,TYPE_C).
type(M_ID_119,TYPE_C).
type(M_ID_76,TYPE_B).
type(M_ID_68,TYPE_B).
type(M_ID_206,TYPE_B).
type(M_ID_138,TYPE_C).
type(M_ID_335,TYPE_C).
type(M_ID_200,TYPE_B).
type(M_ID_176,TYPE_C).
type(M_ID_242,TYPE_C).
type(M_ID_261,TYPE_B).
type(M_ID_79,TYPE_B).
type(M_ID_113,TYPE_C).
type(M_ID_396,TYPE_C).
type(M_ID_250,TYPE_C).
