active(D18).
active(D26).
active(D28).
active(D51).
active(D63).
active(D67).
active(D107).
active(D127).
active(D137).
active(D151).
active(D174).
active(D178).
active(D85).
active(D92).
active(D10).
active(D61).
active(D86).
active(D94).
active(D105).
active(D128).
active(D173).
active(D183).
active(D29).
active(D46).
active(D52).
active(D57).
active(D80).
active(D82).
active(D125).
active(D152).
active(D169).
active(D21).
active(D22).
active(D108).
active(D180).
active(D6).
active(D15).
active(D69).
active(D71).
active(D87).
active(D95).
active(D104).
active(D109).
active(D177).
active(D187).
active(D44).
active(D93).
active(D97).
active(D106).
active(D25).
active(D45).
active(D54).
active(D58).
active(D75).
active(D101).
active(D140).
active(D149).
active(D159).
active(D171).
active(D8).
active(D47).
active(D121).
active(D134).
active(D13).
active(D24).
active(D43).
active(D64).
active(D72).
active(D79).
active(D90).
active(D122).
active(D126).
active(D163).
active(D172).
active(D30).
active(D37).
active(D11).
active(D27).
active(D53).
active(D56).
active(D68).
active(D146).
active(D33).
active(D74).
active(D4).
active(D41).
active(D49).
active(D50).
active(D59).
active(D96).
active(D117).
active(D136).
active(D153).
active(D23).
active(D32).
active(D158).
active(D167).
active(D176).
active(D48).
active(D60).
active(D112).
active(D148).
active(D157).
active(D35).
active(D81).
active(D91).
active(D103).
active(D118).
active(D162).
