type(M_ID_465,TYPE_B).
type(M_ID_301,TYPE_B).
type(M_ID_240,TYPE_C).
type(M_ID_384,TYPE_B).
type(M_ID_452,TYPE_C).
type(M_ID_56,TYPE_B).
type(M_ID_419,TYPE_C).
type(M_ID_355,TYPE_B).
type(M_ID_66,TYPE_C).
type(M_ID_334,TYPE_B).
type(M_ID_498,TYPE_B).
type(M_ID_25,TYPE_C).
type(M_ID_17,TYPE_C).
type(M_ID_77,TYPE_B).
type(M_ID_13,TYPE_B).
type(M_ID_116,TYPE_B).
type(M_ID_393,TYPE_C).
type(M_ID_133,TYPE_B).
type(M_ID_234,TYPE_C).
type(M_ID_125,TYPE_B).
type(M_ID_491,TYPE_B).
type(M_ID_271,TYPE_B).
type(M_ID_429,TYPE_C).
type(M_ID_115,TYPE_B).
type(M_ID_404,TYPE_B).
type(M_ID_38,TYPE_B).
type(M_ID_167,TYPE_C).
type(M_ID_433,TYPE_C).
type(M_ID_225,TYPE_B).
type(M_ID_461,TYPE_B).
type(M_ID_153,TYPE_B).
type(M_ID_208,TYPE_C).
type(M_ID_158,TYPE_C).
type(M_ID_110,TYPE_B).
type(M_ID_130,TYPE_B).
type(M_ID_329,TYPE_B).
type(M_ID_340,TYPE_B).
type(M_ID_55,TYPE_C).
type(M_ID_121,TYPE_B).
type(M_ID_84,TYPE_B).
type(M_ID_4,TYPE_B).
type(M_ID_42,TYPE_C).
type(M_ID_494,TYPE_B).
type(M_ID_128,TYPE_B).
type(M_ID_414,TYPE_C).
type(M_ID_106,TYPE_C).
type(M_ID_289,TYPE_B).
type(M_ID_74,TYPE_B).
type(M_ID_33,TYPE_C).
type(M_ID_172,TYPE_B).
type(M_ID_154,TYPE_B).
type(M_ID_390,TYPE_B).
type(M_ID_489,TYPE_B).
type(M_ID_185,TYPE_B).
type(M_ID_363,TYPE_B).
type(M_ID_389,TYPE_B).
type(M_ID_295,TYPE_B).
type(M_ID_139,TYPE_B).
type(M_ID_181,TYPE_B).
type(M_ID_424,TYPE_C).
type(M_ID_268,TYPE_B).
type(M_ID_478,TYPE_B).
type(M_ID_97,TYPE_B).
type(M_ID_235,TYPE_C).
type(M_ID_37,TYPE_B).
type(M_ID_248,TYPE_C).
type(M_ID_103,TYPE_B).
type(M_ID_440,TYPE_C).
type(M_ID_232,TYPE_C).
type(M_ID_457,TYPE_C).
type(M_ID_182,TYPE_C).
type(M_ID_142,TYPE_C).
type(M_ID_213,TYPE_C).
type(M_ID_124,TYPE_B).
type(M_ID_319,TYPE_B).
type(M_ID_228,TYPE_C).
type(M_ID_198,TYPE_C).
type(M_ID_294,TYPE_C).
type(M_ID_196,TYPE_C).
type(M_ID_72,TYPE_B).
type(M_ID_403,TYPE_B).
type(M_ID_303,TYPE_B).
type(M_ID_203,TYPE_C).
type(M_ID_326,TYPE_B).
type(M_ID_129,TYPE_B).
type(M_ID_486,TYPE_B).
type(M_ID_415,TYPE_C).
type(M_ID_173,TYPE_B).
type(M_ID_259,TYPE_C).
type(M_ID_114,TYPE_B).
type(M_ID_70,TYPE_C).
type(M_ID_95,TYPE_B).
type(M_ID_222,TYPE_C).
type(M_ID_476,TYPE_B).
type(M_ID_82,TYPE_C).
type(M_ID_430,TYPE_C).
type(M_ID_323,TYPE_B).
type(M_ID_450,TYPE_C).
type(M_ID_231,TYPE_B).
type(M_ID_343,TYPE_B).
type(M_ID_117,TYPE_B).
type(M_ID_262,TYPE_B).
type(M_ID_204,TYPE_C).
type(M_ID_378,TYPE_B).
type(M_ID_413,TYPE_B).
type(M_ID_60,TYPE_B).
type(M_ID_471,TYPE_B).
type(M_ID_275,TYPE_B).
type(M_ID_453,TYPE_C).
type(M_ID_148,TYPE_C).
type(M_ID_96,TYPE_B).
type(M_ID_241,TYPE_B).
type(M_ID_199,TYPE_C).
type(M_ID_466,TYPE_B).
type(M_ID_150,TYPE_B).
type(M_ID_52,TYPE_C).
type(M_ID_375,TYPE_C).
type(M_ID_460,TYPE_C).
type(M_ID_144,TYPE_B).
type(M_ID_212,TYPE_C).
type(M_ID_177,TYPE_C).
type(M_ID_372,TYPE_B).
type(M_ID_412,TYPE_B).
type(M_ID_202,TYPE_C).
type(M_ID_205,TYPE_C).
type(M_ID_366,TYPE_B).
type(M_ID_7,TYPE_C).
type(M_ID_270,TYPE_C).
type(M_ID_320,TYPE_C).
type(M_ID_238,TYPE_B).
type(M_ID_385,TYPE_B).
type(M_ID_216,TYPE_B).
type(M_ID_374,TYPE_B).
type(M_ID_112,TYPE_B).
type(M_ID_432,TYPE_C).
type(M_ID_449,TYPE_B).
type(M_ID_422,TYPE_C).
type(M_ID_297,TYPE_C).
type(M_ID_273,TYPE_B).
type(M_ID_353,TYPE_B).
type(M_ID_131,TYPE_B).
type(M_ID_91,TYPE_B).
type(M_ID_264,TYPE_C).
type(M_ID_218,TYPE_C).
type(M_ID_191,TYPE_C).
type(M_ID_32,TYPE_B).
type(M_ID_456,TYPE_C).
type(M_ID_71,TYPE_C).
type(M_ID_93,TYPE_B).
type(M_ID_47,TYPE_C).
type(M_ID_41,TYPE_B).
type(M_ID_88,TYPE_B).
type(M_ID_401,TYPE_B).
type(M_ID_149,TYPE_B).
type(M_ID_379,TYPE_B).
type(M_ID_87,TYPE_B).
type(M_ID_217,TYPE_B).
type(M_ID_19,TYPE_C).
type(M_ID_369,TYPE_B).
type(M_ID_342,TYPE_C).
type(M_ID_368,TYPE_B).
type(M_ID_10,TYPE_B).
type(M_ID_64,TYPE_C).
type(M_ID_224,TYPE_C).
type(M_ID_377,TYPE_B).
type(M_ID_420,TYPE_C).
type(M_ID_157,TYPE_C).
type(M_ID_310,TYPE_B).
type(M_ID_350,TYPE_B).
type(M_ID_219,TYPE_C).
type(M_ID_458,TYPE_C).
type(M_ID_371,TYPE_B).
type(M_ID_127,TYPE_B).
type(M_ID_207,TYPE_C).
type(M_ID_395,TYPE_B).
type(M_ID_394,TYPE_B).
type(M_ID_180,TYPE_C).
type(M_ID_152,TYPE_B).
type(M_ID_482,TYPE_B).
type(M_ID_484,TYPE_B).
type(M_ID_101,TYPE_B).
type(M_ID_483,TYPE_B).
type(M_ID_338,TYPE_B).
type(M_ID_6,TYPE_B).
type(M_ID_324,TYPE_B).
type(M_ID_53,TYPE_B).
type(M_ID_119,TYPE_B).
type(M_ID_76,TYPE_C).
type(M_ID_68,TYPE_C).
type(M_ID_206,TYPE_C).
type(M_ID_138,TYPE_B).
type(M_ID_335,TYPE_B).
type(M_ID_200,TYPE_C).
type(M_ID_176,TYPE_B).
type(M_ID_242,TYPE_B).
type(M_ID_261,TYPE_C).
type(M_ID_79,TYPE_C).
type(M_ID_113,TYPE_B).
type(M_ID_396,TYPE_B).
type(M_ID_250,TYPE_B).
type(M_ID_15,TYPE_C).
type(M_ID_220,TYPE_C).
type(M_ID_168,TYPE_C).
type(M_ID_299,TYPE_B).
type(M_ID_14,TYPE_B).
type(M_ID_339,TYPE_B).
type(M_ID_346,TYPE_B).
type(M_ID_69,TYPE_B).
type(M_ID_490,TYPE_B).
type(M_ID_134,TYPE_B).
type(M_ID_169,TYPE_C).
type(M_ID_11,TYPE_C).
type(M_ID_356,TYPE_B).
type(M_ID_256,TYPE_B).
type(M_ID_359,TYPE_B).
type(M_ID_459,TYPE_C).
type(M_ID_59,TYPE_B).
type(M_ID_438,TYPE_C).
type(M_ID_347,TYPE_B).
type(M_ID_287,TYPE_B).
type(M_ID_479,TYPE_B).
type(M_ID_80,TYPE_B).
type(M_ID_332,TYPE_B).
type(M_ID_296,TYPE_B).
type(M_ID_98,TYPE_B).
type(M_ID_376,TYPE_B).
type(M_ID_2,TYPE_B).
type(M_ID_1,TYPE_C).
type(M_ID_446,TYPE_C).
type(M_ID_278,TYPE_C).
type(M_ID_3,TYPE_C).
type(M_ID_409,TYPE_B).
type(M_ID_18,TYPE_C).
type(M_ID_243,TYPE_B).
type(M_ID_344,TYPE_B).
type(M_ID_100,TYPE_B).
type(M_ID_187,TYPE_B).
type(M_ID_322,TYPE_B).
type(M_ID_358,TYPE_B).
type(M_ID_290,TYPE_B).
type(M_ID_135,TYPE_B).
type(M_ID_357,TYPE_B).
type(M_ID_237,TYPE_C).
type(M_ID_22,TYPE_C).
type(M_ID_251,TYPE_C).
type(M_ID_197,TYPE_C).
type(M_ID_161,TYPE_C).
type(M_ID_284,TYPE_B).
type(M_ID_380,TYPE_B).
type(M_ID_435,TYPE_C).
type(M_ID_170,TYPE_C).
type(M_ID_58,TYPE_C).
type(M_ID_75,TYPE_C).
type(M_ID_226,TYPE_B).
type(M_ID_190,TYPE_C).
type(M_ID_236,TYPE_C).
type(M_ID_269,TYPE_C).
type(M_ID_305,TYPE_B).
type(M_ID_306,TYPE_B).
type(M_ID_354,TYPE_B).
type(M_ID_229,TYPE_B).
type(M_ID_244,TYPE_C).
type(M_ID_308,TYPE_C).
type(M_ID_455,TYPE_C).
type(M_ID_468,TYPE_B).
type(M_ID_309,TYPE_C).
type(M_ID_418,TYPE_C).
type(M_ID_349,TYPE_B).
type(M_ID_480,TYPE_B).
type(M_ID_83,TYPE_C).
type(M_ID_54,TYPE_B).
type(M_ID_328,TYPE_B).
type(M_ID_31,TYPE_C).
type(M_ID_86,TYPE_C).
type(M_ID_253,TYPE_B).
type(M_ID_272,TYPE_B).
type(M_ID_481,TYPE_B).
type(M_ID_194,TYPE_C).
type(M_ID_8,TYPE_C).
type(M_ID_302,TYPE_B).
type(M_ID_352,TYPE_B).
type(M_ID_442,TYPE_C).
type(M_ID_21,TYPE_C).
type(M_ID_469,TYPE_B).
type(M_ID_443,TYPE_C).
type(M_ID_425,TYPE_C).
type(M_ID_383,TYPE_C).
type(M_ID_406,TYPE_B).
type(M_ID_136,TYPE_B).
type(M_ID_34,TYPE_B).
type(M_ID_45,TYPE_C).
type(M_ID_477,TYPE_C).
type(M_ID_431,TYPE_C).
type(M_ID_246,TYPE_C).
type(M_ID_260,TYPE_B).
type(M_ID_451,TYPE_C).
type(M_ID_29,TYPE_C).
type(M_ID_109,TYPE_B).
type(M_ID_123,TYPE_C).
type(M_ID_445,TYPE_C).
type(M_ID_57,TYPE_C).
type(M_ID_351,TYPE_B).
type(M_ID_361,TYPE_B).
type(M_ID_171,TYPE_C).
type(M_ID_51,TYPE_C).
type(M_ID_327,TYPE_B).
type(M_ID_386,TYPE_B).
type(M_ID_26,TYPE_C).
type(M_ID_274,TYPE_B).
type(M_ID_311,TYPE_B).
type(M_ID_434,TYPE_C).
type(M_ID_108,TYPE_B).
type(M_ID_416,TYPE_C).
type(M_ID_276,TYPE_B).
type(M_ID_35,TYPE_C).
type(M_ID_407,TYPE_B).
type(M_ID_214,TYPE_C).
type(M_ID_254,TYPE_C).
type(M_ID_215,TYPE_B).
type(M_ID_291,TYPE_B).
type(M_ID_398,TYPE_B).
type(M_ID_382,TYPE_B).
type(M_ID_252,TYPE_C).
type(M_ID_163,TYPE_C).
type(M_ID_313,TYPE_B).
type(M_ID_16,TYPE_C).
type(M_ID_316,TYPE_B).
type(M_ID_391,TYPE_B).
type(M_ID_318,TYPE_B).
type(M_ID_186,TYPE_B).
type(M_ID_467,TYPE_B).
type(M_ID_464,TYPE_B).
type(M_ID_441,TYPE_C).
type(M_ID_364,TYPE_B).
type(M_ID_499,TYPE_B).
type(M_ID_392,TYPE_B).
type(M_ID_321,TYPE_B).
type(M_ID_331,TYPE_C).
type(M_ID_183,TYPE_C).
type(M_ID_62,TYPE_B).
type(M_ID_267,TYPE_B).
type(M_ID_387,TYPE_B).
type(M_ID_162,TYPE_B).
type(M_ID_307,TYPE_B).
type(M_ID_99,TYPE_C).
type(M_ID_283,TYPE_B).
type(M_ID_292,TYPE_B).
type(M_ID_63,TYPE_C).
type(M_ID_5,TYPE_B).
type(M_ID_159,TYPE_C).
type(M_ID_304,TYPE_B).
type(M_ID_165,TYPE_C).
type(M_ID_49,TYPE_B).
type(M_ID_360,TYPE_B).
type(M_ID_475,TYPE_B).
type(M_ID_44,TYPE_C).
type(M_ID_497,TYPE_B).
type(M_ID_337,TYPE_B).
type(M_ID_20,TYPE_B).
type(M_ID_410,TYPE_C).
type(M_ID_265,TYPE_B).
type(M_ID_317,TYPE_B).
type(M_ID_195,TYPE_C).
type(M_ID_280,TYPE_C).
type(M_ID_336,TYPE_B).
type(M_ID_444,TYPE_C).
type(M_ID_437,TYPE_C).
type(M_ID_300,TYPE_B).
type(M_ID_496,TYPE_B).
type(M_ID_67,TYPE_C).
type(M_ID_27,TYPE_B).
type(M_ID_184,TYPE_C).
type(M_ID_90,TYPE_B).
type(M_ID_211,TYPE_C).
type(M_ID_221,TYPE_C).
type(M_ID_78,TYPE_B).
type(M_ID_286,TYPE_B).
type(M_ID_120,TYPE_B).
type(M_ID_36,TYPE_B).
type(M_ID_61,TYPE_B).
type(M_ID_227,TYPE_C).
type(M_ID_325,TYPE_B).
type(M_ID_365,TYPE_B).
type(M_ID_439,TYPE_C).
type(M_ID_239,TYPE_C).
type(M_ID_126,TYPE_B).
type(M_ID_137,TYPE_B).
type(M_ID_118,TYPE_B).
type(M_ID_46,TYPE_C).
type(M_ID_143,TYPE_C).
type(M_ID_417,TYPE_C).
type(M_ID_400,TYPE_B).
type(M_ID_281,TYPE_C).
type(M_ID_426,TYPE_C).
type(M_ID_285,TYPE_B).
type(M_ID_282,TYPE_C).
type(M_ID_230,TYPE_B).
type(M_ID_249,TYPE_C).
type(M_ID_428,TYPE_C).
type(M_ID_397,TYPE_B).
