active(D110).
active(D111).
active(D114).
active(D116).
active(D117).
active(D119).
active(D121).
active(D123).
active(D124).
active(D125).
active(D127).
active(D128).
active(D130).
active(D133).
active(D150).
active(D151).
active(D154).
active(D155).
active(D156).
active(D159).
active(D160).
active(D161).
active(D162).
active(D163).
active(D164).
active(D165).
active(D166).
active(D169).
active(D170).
active(D171).
active(D172).
active(D173).
active(D174).
active(D178).
active(D179).
active(D180).
active(D181).
active(D183).
active(D184).
active(D185).
active(D186).
active(D188).
active(D190).
active(D194).
active(D207).
active(D208_1).
active(D209).
active(D210).
active(D211).
active(D212).
active(D213).
active(D214).
active(D215).
active(D217).
active(D218).
active(D219).
active(D220).
active(D224).
active(D256).
active(D257).
active(D258).
active(D261).
active(D262).
active(D263).
active(D264).
active(D265).
active(D266).
active(D267).
active(D269).
active(D271).
active(D276).
active(D280).
active(D285).
active(D287).
active(D293).
active(D294).
active(D59).
active(D60).
active(D61).
active(D63).
active(D64).
active(D65).
active(D69).
active(D70).
active(D71).
active(D72).
active(D73).
active(D74).
active(D75).
active(D76).
active(D77).
active(D78).
active(D79).
active(D80).
active(D81).
active(D82).
active(D112).
active(D113).
active(D115).
active(D118).
active(D120).
active(D122).
active(D126).
active(D129).
active(D131).
active(D132).
active(D149).
active(D152).
active(D153).
active(D157).
active(D158).
active(D167).
active(D168).
active(D175).
active(D176).
active(D177).
active(D182).
active(D187).
active(D189).
active(D208_2).
active(D216).
active(D221).
active(D222).
active(D223).
active(D225).
active(D259).
active(D260).
active(D268).
active(D270).
active(D282).
active(D295).
active(D62).
active(D66).
active(D67).
active(D68).
active(D83).
